<?xml version="1.0" encoding="UTF-8" standalone="no"?>
<!-- Created with Inkscape (http://www.inkscape.org/) -->

<svg
   xmlns:dc="http://purl.org/dc/elements/1.1/"
   xmlns:cc="http://creativecommons.org/ns#"
   xmlns:rdf="http://www.w3.org/1999/02/22-rdf-syntax-ns#"
   xmlns:svg="http://www.w3.org/2000/svg"
   xmlns="http://www.w3.org/2000/svg"
   xmlns:sodipodi="http://sodipodi.sourceforge.net/DTD/sodipodi-0.dtd"
   xmlns:inkscape="http://www.inkscape.org/namespaces/inkscape"
   width="100"
   height="100"
   viewBox="0 0 100 100"
   id="svg4146"
   version="1.1"
   inkscape:version="0.92.3 (2405546, 2018-03-11)"
   sodipodi:docname="jet.svg">
  <defs
     id="defs4148" />
  <sodipodi:namedview
     id="base"
     pagecolor="#ffffff"
     bordercolor="#666666"
     borderopacity="1.0"
     inkscape:pageopacity="0.0"
     inkscape:pageshadow="2"
     inkscape:zoom="5.6568542"
     inkscape:cx="-63.103261"
     inkscape:cy="70.587736"
     inkscape:document-units="px"
     inkscape:current-layer="layer3"
     showgrid="false"
     units="px"
     inkscape:window-width="1310"
     inkscape:window-height="783"
     inkscape:window-x="491"
     inkscape:window-y="87"
     inkscape:window-maximized="0" />
  <metadata
     id="metadata4151">
    <rdf:RDF>
      <cc:Work
         rdf:about="">
        <dc:format>image/svg+xml</dc:format>
        <dc:type
           rdf:resource="http://purl.org/dc/dcmitype/StillImage" />
        <dc:title />
      </cc:Work>
    </rdf:RDF>
  </metadata>
  <g
     inkscape:label="base"
     inkscape:groupmode="layer"
     id="layer1"
     transform="translate(0,-952.36216)">
    <path
       style="opacity:1;fill:#000000;fill-opacity:1;stroke:none;stroke-width:5.82578993;stroke-linecap:round;stroke-linejoin:round;stroke-miterlimit:4;stroke-dasharray:none;stroke-dashoffset:0;stroke-opacity:1"
       d="m 1.3221965,988.93962 -4.7380799,1.62168 -3.365508,11.801 3.366709,11.8008 4.7368789,1.6216 10.3149905,-5.1558 1.906768,-8.2666 -1.906768,-8.26684 z"
       id="path4708"
       inkscape:connector-curvature="0"
       sodipodi:nodetypes="ccccccccc" />
  </g>
  <g
     inkscape:groupmode="layer"
     id="layer2"
     inkscape:label="pipe">
    <path
       style="fill:#f6a912;fill-opacity:1;fill-rule:evenodd;stroke:none;stroke-width:1.1005156px;stroke-linecap:butt;stroke-linejoin:miter;stroke-opacity:1"
       d="m 17.149618,38.234375 -12.790243,4.75 3.4063157,3.978516 L 9.4451937,50 l -1.679503,3.037109 -3.4063157,3.978516 12.790243,4.75 6.907251,-8.085938 44.187485,-1.613281 V 47.933594 L 24.056869,46.320313 Z"
       id="path4181"
       inkscape:connector-curvature="0"
       sodipodi:nodetypes="cccccccccccc" />
  </g>
  <g
     inkscape:groupmode="layer"
     id="layer3"
     inkscape:label="joint_rweak_base_pipe">
    <path
       style="opacity:1;fill:#f869bb;fill-opacity:1;stroke:none;stroke-width:8;stroke-linejoin:miter;stroke-miterlimit:4;stroke-dasharray:none;stroke-opacity:0.62121211;paint-order:markers stroke fill"
       d="m 6.9019009,52.19254 h -2.531724 l -1.265862,-2.1926 1.265862,-2.1925 h 2.531724 l 1.265863,2.1925 z"
       id="path840"
       inkscape:connector-curvature="0" />
  </g>
  <g
     inkscape:groupmode="layer"
     id="layer12"
     inkscape:label="bladder_jet"
     style="display:inline">
    <path
       style="opacity:1;fill:#121ff6;fill-opacity:1;stroke:none;stroke-width:1.1005156;stroke-linecap:round;stroke-linejoin:round;stroke-miterlimit:4;stroke-dasharray:none;stroke-dashoffset:0;stroke-opacity:1"
       d="m 62.308648,50.00004 -17.594824,12.065 -11.741916,4.9975 -15.870944,-4.9975 -4.631734,-12.065 4.63173,-12.06502 15.870948,-4.9975 11.741918,4.9975 z"
       id="path4186"
       inkscape:connector-curvature="0"
       sodipodi:nodetypes="ccccccccc" />
  </g>
  <g
     inkscape:groupmode="layer"
     id="layer4"
     inkscape:label="joint_weld_pipe_bladder">
    <path
       inkscape:connector-curvature="0"
       id="path830"
       d="m 33.418406,52.19254 h -2.531724 l -1.265862,-2.1926 1.265862,-2.1925 h 2.531724 l 1.265863,2.1925 z"
       style="opacity:1;fill:#f869bb;fill-opacity:1;stroke:none;stroke-width:8;stroke-linejoin:miter;stroke-miterlimit:4;stroke-dasharray:none;stroke-opacity:0.62121211;paint-order:markers stroke fill" />
  </g>
  <g
     inkscape:groupmode="layer"
     id="layer5"
     inkscape:label="mark_pipe">
    <path
       style="fill:#f612d9;fill-opacity:1;fill-rule:evenodd;stroke:none;stroke-width:1px;stroke-linecap:butt;stroke-linejoin:miter;stroke-opacity:1"
       d="m 17.992641,47.75 3.375,2.625 -3.875,1.875 z"
       id="path4190"
       inkscape:connector-curvature="0" />
  </g>
</svg>
