{
    "Token": "MzYwMjQxNjAwMzc2NDcxNTU0.YUVqAg.CIHLz4Zds-_a-N8mfiPWqb-Xu4I",
    "Autocomplete": true,
    "Times": 0,
    "UserColors": "single",
    "FocusChannelAfterGuildSelection": true,
    "FocusMessageInputAfterChannelSelection": true,
    "ShowUserContainer": true,
    "UseFixedLayout": false,
    "FixedSizeLeft": 12,
    "FixedSizeRight": 12,
    "OnTypeInListBehaviour": 1,
    "MouseEnabled": true,
    "ShortenLinks": false,
    "ShortenWithExtension": false,
    "ShortenerPort": 63212,
    "DesktopNotifications": true,
    "DesktopNotificationsUserInactivityThreshold": 10,
    "DesktopNotificationsForLoadedChannel": true,
    "ShowPlaceholderForBlockedMessages": true,
    "ShowUpdateNotifications": true,
    "DontShowUpdateNotificationFor": "2020-11-22",
    "Accounts": null,
    "IndicateChannelAccessRestriction": false,
    "ShowBottomBar": true,
    "ShowNicknames": true,
    "FileOpenHandlers": {},
    "FileOpenSaveFilesPermanently": false,
    "FileDownloadSaveLocation": "~/Downloads"
}