<?xml version="1.0" encoding="UTF-8" standalone="no"?>
<svg
   xmlns:dc="http://purl.org/dc/elements/1.1/"
   xmlns:cc="http://creativecommons.org/ns#"
   xmlns:rdf="http://www.w3.org/1999/02/22-rdf-syntax-ns#"
   xmlns:svg="http://www.w3.org/2000/svg"
   xmlns="http://www.w3.org/2000/svg"
   xmlns:sodipodi="http://sodipodi.sourceforge.net/DTD/sodipodi-0.dtd"
   xmlns:inkscape="http://www.inkscape.org/namespaces/inkscape"
   width="256"
   height="256"
   viewBox="0 0 256 256"
   id="svg2"
   version="1.1"
   inkscape:version="1.0.1 (3bc2e813f5, 2020-09-07)"
   sodipodi:docname="fuzzypods1.svg">
  <sodipodi:namedview
     id="base"
     pagecolor="#ffffff"
     bordercolor="#666666"
     borderopacity="1.0"
     inkscape:pageopacity="0.0"
     inkscape:pageshadow="2"
     inkscape:zoom="1.979899"
     inkscape:cx="14.543665"
     inkscape:cy="128.51302"
     inkscape:document-units="px"
     inkscape:current-layer="layer1"
     showgrid="false"
     units="px"
     inkscape:window-width="1920"
     inkscape:window-height="1057"
     inkscape:window-x="-8"
     inkscape:window-y="-8"
     inkscape:window-maximized="1"
     inkscape:document-rotation="0" />
  <defs
     id="defs4" />
  <metadata
     id="metadata7">
    <rdf:RDF>
      <cc:Work
         rdf:about="">
        <dc:format>image/svg+xml</dc:format>
        <dc:type
           rdf:resource="http://purl.org/dc/dcmitype/StillImage" />
        <dc:title />
      </cc:Work>
    </rdf:RDF>
  </metadata>
  <g
     transform="translate(0,-796.36216)"
     id="layer1"
     inkscape:groupmode="layer"
     inkscape:label="game">
    <path
       style="fill:#530025;fill-opacity:1;stroke:none;stroke-width:1px;stroke-linecap:butt;stroke-linejoin:miter;stroke-opacity:1"
       d="m 151.04931,941.62347 -11.6712,30.2079 -13.04429,11.6711 -9.61151,4.1193 -19.909688,-15.7904 -14.41739,-3.4327 -4.80579,2.0596 -2.05961,-14.4174 10.2981,-34.327 12.35778,-9.61159 23.342318,-7.5519 19.22318,10.98459 z"
       id="path4013"
       inkscape:connector-curvature="0"
       sodipodi:nodetypes="ccccccccccccc" />
    <path
       style="fill:#530025;fill-opacity:1;stroke:none;stroke-width:1px;stroke-linecap:butt;stroke-linejoin:miter;stroke-opacity:1"
       d="m 89.260632,985.56207 12.357708,14.4173 4.80579,10.98473 0.68659,19.9098 -10.984688,38.4462 -7.55191,14.4174 -14.41738,2.0595 -5.49231,4.8058 h -18.5366 l -14.41731,-7.552 -4.8058,-15.1038 -0.68658,-19.2231 16.47692,-39.8194 9.61159,-14.41733 12.35771,-8.9251 z"
       id="path4015"
       inkscape:connector-curvature="0"
       sodipodi:nodetypes="cccccccccccccccc" />
    <path
       style="fill:#530025;fill-opacity:1;stroke:none;stroke-width:1px;stroke-linecap:butt;stroke-linejoin:miter;stroke-opacity:1"
       d="m 70.037532,960.15997 -26.08852,32.2676 -12.35777,25.40183 -21.9692997,19.9098 -14.41731,4.1191 -15.7904803,-10.298 -18.53652,-14.4173 -1.3731,-21.28273 8.92501,-23.3425 15.7904,-19.2231 36.38668,-22.6558 17.16351,-6.8654 24.0289,6.8654 z"
       id="path4017"
       inkscape:connector-curvature="0"
       sodipodi:nodetypes="cccccccccccccc" />
    <path
       style="fill:#421b2f;fill-opacity:1;stroke:none;stroke-width:1px;stroke-linecap:butt;stroke-linejoin:miter;stroke-opacity:1"
       d="m 119.46842,986.93517 -10.2981,-13.0443 -19.223108,-9.6115 -11.67119,-1.3731 -17.1635,21.2827 -2.74619,8.9251 20.5962,-2.7463 h 10.2981 l 14.417388,15.79053 6.8654,-0.6866 z"
       id="path4019"
       inkscape:connector-curvature="0"
       sodipodi:nodetypes="ccccccccccc" />
    <path
       style="fill:#421b2f;fill-opacity:1;stroke:none;stroke-width:1px;stroke-linecap:butt;stroke-linejoin:miter;stroke-opacity:1"
       d="m 35.710522,925.14657 7.55191,-9.6116 11.6712,-3.43269 26.08858,-8.92501 16.47692,-4.80579 15.790398,-2.0596 15.79048,-10.98469 22.65581,5.4923 4.8058,6.17889 1.37309,12.3577 -6.17889,36.38669 -11.6712,-18.5366 -9.61158,-10.98468 -15.79041,-5.4923 -19.909688,10.98468 -8.92501,11.6712 -11.67119,27.4616 -8.92501,2.0596 -5.49231,-21.2828 -1.37309,-8.2384 z"
       id="path4007"
       inkscape:connector-curvature="0"
       sodipodi:nodetypes="ccccccccccccccccccccc" />
    <path
       style="fill:#6a0c1e;fill-opacity:1;stroke:none;stroke-width:1px;stroke-linecap:butt;stroke-linejoin:miter;stroke-opacity:1"
       d="m 74.307782,994.71247 -11.32652,14.15033 -4.16818,20.1466 8.988,13.3234 14.15031,11.3264 -3.0023,19.148 -14.48604,-1.336 -11.81796,-16.1547 -7.32087,-20.8158 7.49858,-20.9784 z"
       id="path4039"
       inkscape:connector-curvature="0"
       sodipodi:nodetypes="ccccccccccc" />
    <path
       style="fill:#6a0c1e;fill-opacity:1;stroke:none;stroke-width:1px;stroke-linecap:butt;stroke-linejoin:miter;stroke-opacity:1"
       d="m 139.10021,934.03087 2.04406,24.7643 -5.67351,12.5837 -11.60798,1.9688 2.70194,-15.1928 6.25924,-6.6649 4.33304,-11.7339 z"
       id="path4041"
       inkscape:connector-curvature="0"
       sodipodi:nodetypes="cccccccc" />
    <path
       style="fill:#6a0c1e;fill-opacity:1;stroke:none;stroke-width:1px;stroke-linecap:butt;stroke-linejoin:miter;stroke-opacity:1"
       d="m 50.747282,937.56107 -27.64963,11.4061 -20.2000897,12.6457 -14.7793503,26.0758 2.7128403,17.15493 2.26101,15.688 -12.4144503,3.5017 -10.49957,-12.1871 2.36584,-18.39773 11.05313,-32.9597 19.2974303,-11.4041 z"
       id="path4043"
       inkscape:connector-curvature="0"
       sodipodi:nodetypes="cccccccccccc" />
    <path
       style="fill:#6a0c1e;fill-opacity:1;stroke:none;stroke-width:1px;stroke-linecap:butt;stroke-linejoin:miter;stroke-opacity:1"
       d="m 37.083612,951.92157 -10.2981,15.104 -5.4923,15.1038 4.11921,13.7309 10.2981,-6.1789 -4.11921,-14.4174 z"
       id="path4045"
       inkscape:connector-curvature="0"
       sodipodi:nodetypes="ccccccc" />
    <path
       style="fill:#6a0c1e;fill-opacity:1;stroke:none;stroke-width:1px;stroke-linecap:butt;stroke-linejoin:miter;stroke-opacity:1"
       d="m 112.8515,913.27433 -13.629808,12.18224 -8.96511,13.3386 0.69457,14.3186 11.482218,-3.5194 -0.52892,-14.9849 z"
       id="path4045-0"
       inkscape:connector-curvature="0"
       sodipodi:nodetypes="ccccccc" />
  </g>
</svg>
