<?xml version="1.0" encoding="UTF-8" standalone="no"?>
<!-- Created with Inkscape (http://www.inkscape.org/) -->

<svg
   xmlns:dc="http://purl.org/dc/elements/1.1/"
   xmlns:cc="http://creativecommons.org/ns#"
   xmlns:rdf="http://www.w3.org/1999/02/22-rdf-syntax-ns#"
   xmlns:svg="http://www.w3.org/2000/svg"
   xmlns="http://www.w3.org/2000/svg"
   xmlns:sodipodi="http://sodipodi.sourceforge.net/DTD/sodipodi-0.dtd"
   xmlns:inkscape="http://www.inkscape.org/namespaces/inkscape"
   width="256"
   height="256"
   viewBox="0 0 256 256"
   id="svg2"
   version="1.1"
   inkscape:version="0.92.3 (2405546, 2018-03-11)"
   sodipodi:docname="mushroom_blue_right_3.svg">
  <sodipodi:namedview
     id="base"
     pagecolor="#ffffff"
     bordercolor="#666666"
     borderopacity="1.0"
     inkscape:pageopacity="0.0"
     inkscape:pageshadow="2"
     inkscape:zoom="2.8"
     inkscape:cx="292.0623"
     inkscape:cy="159.95297"
     inkscape:document-units="px"
     inkscape:current-layer="layer1"
     showgrid="false"
     units="px"
     inkscape:window-width="1920"
     inkscape:window-height="1057"
     inkscape:window-x="-8"
     inkscape:window-y="-8"
     inkscape:window-maximized="1"
     inkscape:snap-global="false" />
  <defs
     id="defs4" />
  <metadata
     id="metadata7">
    <rdf:RDF>
      <cc:Work
         rdf:about="">
        <dc:format>image/svg+xml</dc:format>
        <dc:type
           rdf:resource="http://purl.org/dc/dcmitype/StillImage" />
        <dc:title></dc:title>
      </cc:Work>
    </rdf:RDF>
  </metadata>
  <g
     transform="translate(0,-796.36216)"
     id="layer1"
     inkscape:groupmode="layer"
     inkscape:label="main">
    <path
       style="fill:#002b53;fill-opacity:1;stroke:none;stroke-width:0.99999994px;stroke-linecap:butt;stroke-linejoin:miter;stroke-opacity:1"
       d="m 163.11633,882.04506 17.69845,-5.16337 15.57789,-4.52901 7.32665,-4.3113 -1.28213,-9.01916 -6.02778,-9.98321 -8.21064,-6.284 -15.47494,-5.03735 -17.88822,0.98222 -13.37345,4.26652 -10.32839,7.72574 -6.46445,11.46973 -1.00602,8.90937 5.12489,9.32628 15.22271,3.92092 z"
       id="path3803-6"
       inkscape:connector-curvature="0"
       sodipodi:nodetypes="cccccccccccccccc" />
    <path
       style="fill:#0c456a;fill-opacity:1;stroke:none;stroke-width:0.99999994px;stroke-linecap:butt;stroke-linejoin:miter;stroke-opacity:1"
       d="m 132.12695,880.39204 -3.03749,-7.4592 14.82151,-7.87831 12.60744,-2.64673 21.8769,-3.36763 16.07286,2.67326 7.17071,3.35044 0.94409,2.48915 -9.27897,5.69012 -14.92728,4.06904 -10.88561,3.58836 -20.12391,2.77682 -9.8861,-1.3172 z"
       id="path3805-7"
       inkscape:connector-curvature="0"
       sodipodi:nodetypes="cccccccccccccc" />
    <path
       style="fill:#1b3842;fill-opacity:1;stroke:none;stroke-width:0.99999994px;stroke-linecap:butt;stroke-linejoin:miter;stroke-opacity:1"
       d="m 112.45842,946.2546 1.76777,-12.12186 8.33376,-7.95496 14.01587,-6.81854 14.89974,-12.37436 5.55585,-15.27855 0.37881,-13.13197 -5.55585,-10.6066 1.06618,-5.99966 21.06001,-2.61729 2.26016,5.05078 -2.16299,6.09154 -1.51525,6.56598 -1.51521,8.08124 -3.6618,15.5311 -6.81853,15.53106 -11.23795,8.83884 -14.77348,9.09139 -1.38896,14.14216 -12.49111,2.554 z"
       id="path3801-8"
       inkscape:connector-curvature="0"
       sodipodi:nodetypes="ccccccccccccccccccccc" />
  </g>
</svg>
