<?xml version="1.0" encoding="UTF-8" standalone="no"?>
<!-- Created with Inkscape (http://www.inkscape.org/) -->

<svg
   xmlns:dc="http://purl.org/dc/elements/1.1/"
   xmlns:cc="http://creativecommons.org/ns#"
   xmlns:rdf="http://www.w3.org/1999/02/22-rdf-syntax-ns#"
   xmlns:svg="http://www.w3.org/2000/svg"
   xmlns="http://www.w3.org/2000/svg"
   xmlns:sodipodi="http://sodipodi.sourceforge.net/DTD/sodipodi-0.dtd"
   xmlns:inkscape="http://www.inkscape.org/namespaces/inkscape"
   width="100"
   height="100"
   viewBox="0 0 100 100"
   id="svg2"
   version="1.1"
   inkscape:version="0.92.3 (2405546, 2018-03-11)"
   sodipodi:docname="spinykelp2.svg">
  <sodipodi:namedview
     id="base"
     pagecolor="#ffffff"
     bordercolor="#666666"
     borderopacity="1.0"
     inkscape:pageopacity="0.0"
     inkscape:pageshadow="2"
     inkscape:zoom="1.4"
     inkscape:cx="-128.05825"
     inkscape:cy="191.78096"
     inkscape:document-units="px"
     inkscape:current-layer="layer1"
     showgrid="false"
     units="px"
     inkscape:window-width="1920"
     inkscape:window-height="1017"
     inkscape:window-x="-8"
     inkscape:window-y="-8"
     inkscape:window-maximized="1"
     inkscape:snap-global="false" />
  <defs
     id="defs4" />
  <metadata
     id="metadata7">
    <rdf:RDF>
      <cc:Work
         rdf:about="">
        <dc:format>image/svg+xml</dc:format>
        <dc:type
           rdf:resource="http://purl.org/dc/dcmitype/StillImage" />
        <dc:title />
      </cc:Work>
    </rdf:RDF>
  </metadata>
  <g
     transform="translate(0,-952.36216)"
     id="layer1"
     inkscape:groupmode="layer"
     inkscape:label="Layer 1">
    <path
       style="opacity:1;fill:#000a00;fill-opacity:1;stroke:none;stroke-width:0.41340524;stroke-linejoin:miter;stroke-miterlimit:4;stroke-dasharray:none;stroke-opacity:1;paint-order:markers stroke fill"
       d="m 58.404297,-321.83594 2.347656,19.05274 2.082031,18.15039 0.507813,18.23633 -3.574219,9.98242 -4.710937,-10.26758 -1.792969,-11.17578 -0.396484,-5.76367 -3.464844,14.85547 2.300781,11.11523 4.6875,10.39062 0.248047,12.41993 2.361328,8.81836 -0.849609,-1.1836 -7.302735,-1.70703 5.447266,8.18164 0.628906,12.71875 -3.255859,10.69922 -8.001953,11.8125 -1.275391,-3.96289 -7.669922,-12.38672 4.5,-10.53906 -1.183594,-8.46094 -2.09375,5.69727 -3.472656,8.38281 -1.927734,-7.38672 0.738281,-8.67578 3.867188,-5.45703 -4.957032,0.99023 -2.726562,3.57617 -4.0453,-2.73279 -5.192982,-9.484 -6.843957,-15.41386 1.584588,20.20486 7.454682,13.63087 4.539063,16.59375 -0.994141,9.96485 -5.873047,-3.2461 -3.533203,-6.23242 4.498047,-12.96875 -4.501953,1.75586 -5.054688,13.14648 6.306641,10.24805 7.15625,6.45508 3.003906,11.32422 5.839844,11.92968 -0.527344,10.78321 0.910156,5.8789 -13.46289,-18.15625 -17.2700897,-13.67466 15.2388397,20.73828 7.755859,16.25279 8.496094,20.60547 0.251953,12.95312 -9.837891,-9.68359 -6.898437,-11.98242 -2.955078,-6.41016 2.490234,18.47071 7.453125,11.69336 9.863281,9.830073 5.675782,14.078125 9.085937,12.597656 -0.25,3.121094 -4.496094,6.962891 -13.957031,-31.615235 4.001953,19.425782 6.873047,13.796875 0.0332,5.80664 -2.589844,10.105469 0.619141,11.804688 -0.388672,1.113281 L 36.246094,-35.103516 15.158203,-67.078125 3.486049,-93.419922 9.5917969,-63.28125 20.298828,-39.263672 28.882812,-14.449219 28.294922,0.80078125 17.384766,-11.259766 10.091797,-25.824219 7.0527344,-33.564453 8.7226562,-11.671875 16.685547,2.5917969 27.615234,14.826172 l 5.714844,16.943359 9.824219,15.4375 -0.607422,4.373047 3.09375,2.353516 2.607422,3.695312 L 51,55.230469 l 6.181641,0.09766 3.533203,-14.589844 1.765625,-13.728515 -1.0625,-14.244141 -4.533203,-11.4238281 8.667968,-13.4960939 1.001954,-5.498047 -7.509766,8.7324221 -0.273438,-1.0078125 6.615235,-14.0566406 2.990234,-14.878906 7.888672,-11.476563 5.173828,-12.865234 -0.945312,-18.613281 -1.726563,6.84375 -4.578125,13.046875 -7.890625,11.328125 -2.132812,-12.779297 4.5625,-21.816406 6.435546,-21.371102 6.953126,-22.40039 -12.048829,19.80078 -6.626953,13.609383 -3.984375,-8.560553 6.679688,-11.86133 0.578125,-4.70898 -8.294922,10.85742 -3.324219,-1.01367 -7.566406,-7.98633 0.0098,-0.0312 0.154297,0.12695 2.41211,-3.60937 16.926022,-9.53132 4.738164,-6.07568 2.898221,-8.88565 -10.029944,10.00868 -12.006679,5.71759 8.739841,-12.80589 5.064453,-16.39648 10.185547,-12.00977 7.291015,-13.88281 1.060547,-21.04687 -2.724609,7.5 -6.638672,14.15625 -10.169922,11.84179 -0.941406,-14.61914 7.625,-24.02148 9.679687,-23.30859 10.38086,-24.4043 -13.056641,17.25195 -0.525391,-7.23242 0.869141,-4.67188 7.539063,-10.11523 6.044922,-15.06641 -15.833985,23.43946 -3.464844,-8.31055 7.376953,-9.66211 0.919922,-9.00391 -3.634765,5.31055 -5.75586,7.71289 -0.128906,-8.0918 2.976563,-8.7246 0.002,-4.875 -3.753907,2.96484 -1.378906,3.29102 -5.144531,-18.2461 z"
       transform="translate(0,952.36216)"
       id="path5994"
       inkscape:connector-curvature="0"
       sodipodi:nodetypes="ccccccccccccccccccccccccccccccccccccccccccccccccccccccccccccccccccccccccccccccccccccccccccccccccccccccccccccccccccccccccccccccccccccccccccccccccccccccccccccc" />
  </g>
</svg>
