<?xml version="1.0" encoding="UTF-8" standalone="no"?>
<!-- Created with Inkscape (http://www.inkscape.org/) -->

<svg
   xmlns:dc="http://purl.org/dc/elements/1.1/"
   xmlns:cc="http://creativecommons.org/ns#"
   xmlns:rdf="http://www.w3.org/1999/02/22-rdf-syntax-ns#"
   xmlns:svg="http://www.w3.org/2000/svg"
   xmlns="http://www.w3.org/2000/svg"
   xmlns:sodipodi="http://sodipodi.sourceforge.net/DTD/sodipodi-0.dtd"
   xmlns:inkscape="http://www.inkscape.org/namespaces/inkscape"
   width="40"
   height="40"
   viewBox="0 0 40 40.000001"
   id="svg7565"
   version="1.1"
   inkscape:version="0.91 r13725"
   sodipodi:docname="map_icon_compass.svg"
   inkscape:export-filename="C:\Users\wick\Dropbox\wickFolder\projects\crescentloom\crescentloom.data\gfx\gui\icon_help.png"
   inkscape:export-xdpi="90.000198"
   inkscape:export-ydpi="90.000198">
  <defs
     id="defs7567" />
  <sodipodi:namedview
     id="base"
     pagecolor="#ffffff"
     bordercolor="#666666"
     borderopacity="1.0"
     inkscape:pageopacity="0.0"
     inkscape:pageshadow="2"
     inkscape:zoom="7.919596"
     inkscape:cx="-6.7415976"
     inkscape:cy="13.317428"
     inkscape:document-units="px"
     inkscape:current-layer="layer2"
     showgrid="false"
     units="px"
     inkscape:window-width="1366"
     inkscape:window-height="745"
     inkscape:window-x="-8"
     inkscape:window-y="-8"
     inkscape:window-maximized="1" />
  <metadata
     id="metadata7570">
    <rdf:RDF>
      <cc:Work
         rdf:about="">
        <dc:format>image/svg+xml</dc:format>
        <dc:type
           rdf:resource="http://purl.org/dc/dcmitype/StillImage" />
        <dc:title />
      </cc:Work>
    </rdf:RDF>
  </metadata>
  <g
     inkscape:label="bottom"
     inkscape:groupmode="layer"
     id="layer1"
     transform="translate(0,-1012.3622)">
    <path
       style="opacity:1;fill:#bfbf90;fill-opacity:1;stroke:none;stroke-width:1.53393435;stroke-linecap:round;stroke-linejoin:round;stroke-miterlimit:4;stroke-dasharray:none;stroke-dashoffset:0;stroke-opacity:1"
       d="m 37.211147,1032.3622 -1.352551,6.6993 -3.688494,5.4708 -5.470758,3.6885 -6.699344,1.3525 -6.699344,-1.3525 -5.4707583,-3.6885 -3.6884942,-5.4708 -1.3525508,-6.6993 1.3525234,-6.6994 3.6884875,-5.4708 5.4707684,-3.6885 L 20,1015.151 l 6.699368,1.3525 5.470768,3.6885 3.688488,5.4708 z"
       id="path4138"
       inkscape:connector-curvature="0"
       sodipodi:nodetypes="ccccccccccccccccc" />
  </g>
  <g
     inkscape:groupmode="layer"
     id="layer2"
     inkscape:label="middle">
    <path
       transform="translate(0,-1012.3622)"
       style="opacity:1;fill:#bd6145;fill-opacity:1;stroke:none;stroke-width:1.53393435;stroke-linecap:round;stroke-linejoin:round;stroke-miterlimit:4;stroke-dasharray:none;stroke-dashoffset:0;stroke-opacity:1"
       d="m 34.020402,1032.3622 -1.101793,5.4574 -3.004688,4.4565 -4.456548,3.0047 -5.457373,1.1018 -5.457373,-1.1018 -4.456548,-3.0047 -3.0046877,-4.4565 -1.1017933,-5.4574 1.1017923,-5.4574 3.0046887,-4.4565 4.456548,-3.0047 5.457373,-1.1018 5.457373,1.1018 4.456548,3.0047 3.004689,4.4565 z"
       id="circle4615"
       inkscape:connector-curvature="0"
       sodipodi:nodetypes="ccccccccccccccccc" />
    <path
       transform="translate(0,-1012.3622)"
       style="opacity:1;fill:#391409;fill-opacity:1;stroke:none;stroke-width:1.53393435;stroke-linecap:round;stroke-linejoin:round;stroke-miterlimit:4;stroke-dasharray:none;stroke-dashoffset:0;stroke-opacity:1"
       d="m 28.883471,1032.3622 -0.698099,3.4579 -1.903799,2.8237 -2.823718,1.9038 -3.457855,0.6981 -3.457855,-0.6981 -2.823718,-1.9038 -1.903799,-2.8237 -0.698099,-3.4579 0.698112,-3.4579 1.903798,-2.8237 2.823711,-1.9038 3.45785,-0.6981 3.45785,0.6981 2.823711,1.9038 1.903798,2.8237 z"
       id="circle4621"
       inkscape:connector-curvature="0"
       sodipodi:nodetypes="ccccccccccccccccc" />
  </g>
  <g
     inkscape:groupmode="layer"
     id="layer3"
     inkscape:label="top">
    <path
       transform="translate(0,-1012.3622)"
       style="opacity:1;fill:#f0f0f0;fill-opacity:1;stroke:none;stroke-width:3;stroke-linecap:round;stroke-linejoin:bevel;stroke-miterlimit:4;stroke-dasharray:none;stroke-dashoffset:0;stroke-opacity:1"
       d="m 19.381057,1020.3501 -4.601781,11.2622 5.220724,12.7624 5.220724,-12.7624 -4.601765,-11.2622 z"
       id="path4634"
       inkscape:connector-curvature="0" />
    <path
       transform="translate(0,-1012.3622)"
       style="opacity:1;fill:#bfbf90;fill-opacity:1;stroke:none;stroke-width:3;stroke-linecap:round;stroke-linejoin:bevel;stroke-miterlimit:4;stroke-dasharray:none;stroke-dashoffset:0;stroke-opacity:1"
       d="m 20,1022.8696 3.367244,8.2381 -6.734473,0 z"
       id="path4609"
       inkscape:connector-curvature="0" />
  </g>
</svg>
