<?xml version="1.0" encoding="UTF-8" standalone="no"?>
<!-- Created with Inkscape (http://www.inkscape.org/) -->

<svg
   xmlns:dc="http://purl.org/dc/elements/1.1/"
   xmlns:cc="http://creativecommons.org/ns#"
   xmlns:rdf="http://www.w3.org/1999/02/22-rdf-syntax-ns#"
   xmlns:svg="http://www.w3.org/2000/svg"
   xmlns="http://www.w3.org/2000/svg"
   xmlns:sodipodi="http://sodipodi.sourceforge.net/DTD/sodipodi-0.dtd"
   xmlns:inkscape="http://www.inkscape.org/namespaces/inkscape"
   width="256"
   height="256"
   viewBox="0 0 256 256"
   id="svg2"
   version="1.1"
   inkscape:version="0.91 r13725"
   sodipodi:docname="eggpiece2.svg">
  <sodipodi:namedview
     id="base"
     pagecolor="#ffffff"
     bordercolor="#666666"
     borderopacity="1.0"
     inkscape:pageopacity="0.0"
     inkscape:pageshadow="2"
     inkscape:zoom="3.959798"
     inkscape:cx="77.172199"
     inkscape:cy="104.279"
     inkscape:document-units="px"
     inkscape:current-layer="layer1"
     showgrid="false"
     units="px"
     inkscape:window-width="1366"
     inkscape:window-height="745"
     inkscape:window-x="-8"
     inkscape:window-y="-8"
     inkscape:window-maximized="1" />
  <defs
     id="defs4" />
  <metadata
     id="metadata7">
    <rdf:RDF>
      <cc:Work
         rdf:about="">
        <dc:format>image/svg+xml</dc:format>
        <dc:type
           rdf:resource="http://purl.org/dc/dcmitype/StillImage" />
        <dc:title />
      </cc:Work>
    </rdf:RDF>
  </metadata>
  <g
     inkscape:label="game"
     inkscape:groupmode="layer"
     id="layer1"
     transform="translate(0,-796.36216)">
    <path
       style="opacity:1;fill:#001e50;fill-opacity:0.43604659;stroke:none;stroke-width:4;stroke-linecap:round;stroke-linejoin:round;stroke-miterlimit:4;stroke-dasharray:none;stroke-dashoffset:0;stroke-opacity:1"
       d="m 127.7934,915.15916 -3.55842,0.7181 -2.90535,1.95921 -1.95921,2.90535 -0.7181,3.55843 0.7181,3.55842 1.95921,2.90535 2.90535,1.95921 2.95096,0.59583 0.31247,-0.50364 1.12856,-3.89029 -0.25036,-4.39102 -0.8782,-7.27793 0.99562,-1.95534 -0.70063,-0.14168 z"
       id="path8137"
       inkscape:connector-curvature="0" />
  </g>
  <g
     inkscape:groupmode="layer"
     id="layer5"
     inkscape:label="main_front">
    <path
       style="opacity:1;fill:#0059f0;fill-opacity:0.70348834;stroke:none;stroke-width:4;stroke-linecap:round;stroke-linejoin:round;stroke-miterlimit:4;stroke-dasharray:none;stroke-dashoffset:0;stroke-opacity:1"
       d="M 128 106.39648 L 119.58984 108.09375 L 112.7207 112.72461 L 108.0918 119.5918 L 106.39258 128.00391 L 108.0918 136.41406 L 112.7207 143.28125 L 119.58984 147.91211 L 128 149.60938 L 125.00586 149.00391 L 127.40625 145.13867 L 129.67773 137.30859 L 129.17383 128.4707 L 127.40625 113.82227 L 130.88867 106.97852 L 128 106.39648 z M 128 149.60938 L 136.41016 147.91211 L 143.2793 143.28125 L 136.41016 147.91016 L 128 149.60938 z "
       id="path4138" />
    <path
       style="opacity:1;fill:#b5ecfe;fill-opacity:0.88372091;stroke:none;stroke-width:4;stroke-linecap:round;stroke-linejoin:round;stroke-miterlimit:4;stroke-dasharray:none;stroke-dashoffset:0;stroke-opacity:1"
       d="M 128 111.74023 L 121.66992 113.01758 L 116.50195 116.50195 L 113.01758 121.66992 L 111.74023 128 L 113.01758 134.33008 L 116.50195 139.49805 L 121.66992 142.98242 L 127.67969 144.19531 L 129.67773 137.30859 L 129.17383 128.4707 L 127.40625 113.82227 L 128.42188 111.82617 L 128 111.74023 z "
       id="path8135" />
    <path
       style="opacity:1;fill:#0057ea;fill-opacity:0.82558139;stroke:none;stroke-width:4;stroke-linecap:round;stroke-linejoin:round;stroke-miterlimit:4;stroke-dasharray:none;stroke-dashoffset:0;stroke-opacity:1"
       d="M 127.55859 113.52344 L 122.33008 114.57812 L 117.69922 117.69922 L 114.57812 122.33008 L 113.43359 128 L 114.57812 133.66992 L 117.69922 138.30078 L 122.33008 141.42188 L 128 142.56641 L 128.16211 142.5332 L 129.67773 137.30859 L 129.17383 128.4707 L 127.40625 113.82227 L 127.55859 113.52344 z "
       id="path8133" />
    <path
       style="opacity:1;fill:#18f7ff;fill-opacity:0.7093023;stroke:none;stroke-width:4;stroke-linecap:round;stroke-linejoin:round;stroke-miterlimit:4;stroke-dasharray:none;stroke-dashoffset:0;stroke-opacity:1"
       d="M 126.54102 114.73242 L 127.14258 118.88672 L 122.87109 122.07227 L 120.25391 125.14453 L 119.06641 129.02539 L 120.75977 132.33984 L 122.68164 134.84375 L 126.63672 136.07031 L 129 139.64258 L 129.67773 137.30859 L 129.17383 128.4707 L 127.58203 115.28516 L 126.54102 114.73242 z "
       id="path8147" />
  </g>
</svg>
