<?xml version="1.0" encoding="UTF-8" standalone="no"?>
<!-- Created with Inkscape (http://www.inkscape.org/) -->

<svg
   xmlns:dc="http://purl.org/dc/elements/1.1/"
   xmlns:cc="http://creativecommons.org/ns#"
   xmlns:rdf="http://www.w3.org/1999/02/22-rdf-syntax-ns#"
   xmlns:svg="http://www.w3.org/2000/svg"
   xmlns="http://www.w3.org/2000/svg"
   xmlns:sodipodi="http://sodipodi.sourceforge.net/DTD/sodipodi-0.dtd"
   xmlns:inkscape="http://www.inkscape.org/namespaces/inkscape"
   width="100"
   height="100"
   viewBox="0 0 100 100"
   id="svg6845"
   version="1.1"
   inkscape:version="0.91 r13725"
   sodipodi:docname="cell_organ_larynx.svg">
  <defs
     id="defs6847" />
  <sodipodi:namedview
     id="base"
     pagecolor="#ffffff"
     bordercolor="#666666"
     borderopacity="1.0"
     inkscape:pageopacity="0.0"
     inkscape:pageshadow="2"
     inkscape:zoom="3.959798"
     inkscape:cx="48.029857"
     inkscape:cy="25.751911"
     inkscape:document-units="px"
     inkscape:current-layer="layer1"
     showgrid="false"
     inkscape:window-width="1680"
     inkscape:window-height="1027"
     inkscape:window-x="-8"
     inkscape:window-y="-8"
     inkscape:window-maximized="1"
     units="px" />
  <metadata
     id="metadata6850">
    <rdf:RDF>
      <cc:Work
         rdf:about="">
        <dc:format>image/svg+xml</dc:format>
        <dc:type
           rdf:resource="http://purl.org/dc/dcmitype/StillImage" />
        <dc:title />
      </cc:Work>
    </rdf:RDF>
  </metadata>
  <g
     inkscape:groupmode="layer"
     id="layer3"
     inkscape:label="base"
     style="display:inline"
     transform="translate(0,-952.36214)">
    <path
       style="display:inline;opacity:1;fill:#000000;fill-opacity:1;stroke:none;stroke-width:1;stroke-linecap:round;stroke-linejoin:round;stroke-miterlimit:4;stroke-dasharray:none;stroke-dashoffset:0;stroke-opacity:1"
       d="M 50,959.6756 18.371094,969.43927 5.4824219,1002.3612 18.371094,1035.285 50,1045.0487 81.628906,1035.285 94.517578,1002.3612 81.628906,969.43927 Z"
       id="path4186"
       inkscape:connector-curvature="0"
       sodipodi:nodetypes="ccccccccc" />
  </g>
  <g
     inkscape:label="design"
     inkscape:groupmode="layer"
     id="layer1"
     style="display:inline"
     transform="translate(0,-952.36214)">
    <path
       style="opacity:1;fill:#ff5656;fill-opacity:1;stroke:none;stroke-width:3;stroke-linecap:round;stroke-linejoin:round;stroke-miterlimit:4;stroke-dasharray:none;stroke-dashoffset:0;stroke-opacity:1"
       d="m 58.471998,1002.3622 -2.48139,5.9906 -5.990608,2.4814 -5.990608,-2.4814 -2.48139,-5.9906 2.481391,-5.99067 L 50,993.8901 l 5.990607,2.48142 z"
       id="circle4183"
       inkscape:connector-curvature="0"
       sodipodi:nodetypes="ccccccccc" />
    <path
       inkscape:connector-curvature="0"
       id="path4145"
       d="m 42.993592,981.00977 4.049162,1.67682 -11.048743,4.57765 -6.253169,15.09786 6.253169,15.0979 11.048743,4.5777 -4.049162,1.6768 -15.097904,-6.2545 -6.253168,-15.0979 6.253168,-15.09786 15.097904,-6.25447 z"
       style="opacity:1;fill:#ff5656;fill-opacity:1;stroke:none;stroke-width:3;stroke-linecap:round;stroke-linejoin:round;stroke-miterlimit:4;stroke-dasharray:none;stroke-dashoffset:0;stroke-opacity:1" />
    <path
       style="opacity:1;fill:#ff5656;fill-opacity:1;stroke:none;stroke-width:3;stroke-linecap:round;stroke-linejoin:round;stroke-miterlimit:4;stroke-dasharray:none;stroke-dashoffset:0;stroke-opacity:1"
       d="m 32.039353,972.51807 5.65949,2.34368 -15.442764,6.39815 -8.740018,21.1022 8.740018,21.1022 15.442764,6.3983 -5.65949,2.3436 -21.102253,-8.7419 -8.7400161,-21.1022 8.7400161,-21.10221 21.102253,-8.74183 z"
       id="path4147"
       inkscape:connector-curvature="0" />
    <path
       style="opacity:1;fill:#ff5656;fill-opacity:1;stroke:none;stroke-width:3;stroke-linecap:round;stroke-linejoin:round;stroke-miterlimit:4;stroke-dasharray:none;stroke-dashoffset:0;stroke-opacity:1"
       d="m 57.006409,981.00977 -4.04916,1.67682 11.04874,4.57765 6.253169,15.09786 -6.253169,15.0979 -11.04874,4.5777 4.04916,1.6768 15.097903,-6.2545 6.253168,-15.0979 -6.253168,-15.09786 -15.097903,-6.25447 z"
       id="path4149"
       inkscape:connector-curvature="0" />
    <path
       inkscape:connector-curvature="0"
       id="path4151"
       d="m 67.960647,972.51807 -5.65949,2.34368 15.442764,6.39815 8.740018,21.1022 -8.740018,21.1022 -15.442764,6.3983 5.65949,2.3436 21.102253,-8.7419 8.740016,-21.1022 -8.740016,-21.10221 -21.102253,-8.74183 z"
       style="opacity:1;fill:#ff5656;fill-opacity:1;stroke:none;stroke-width:3;stroke-linecap:round;stroke-linejoin:round;stroke-miterlimit:4;stroke-dasharray:none;stroke-dashoffset:0;stroke-opacity:1" />
  </g>
</svg>
