<?xml version="1.0" encoding="UTF-8" standalone="no"?>
<!-- Created with Inkscape (http://www.inkscape.org/) -->

<svg
   xmlns:dc="http://purl.org/dc/elements/1.1/"
   xmlns:cc="http://creativecommons.org/ns#"
   xmlns:rdf="http://www.w3.org/1999/02/22-rdf-syntax-ns#"
   xmlns:svg="http://www.w3.org/2000/svg"
   xmlns="http://www.w3.org/2000/svg"
   xmlns:sodipodi="http://sodipodi.sourceforge.net/DTD/sodipodi-0.dtd"
   xmlns:inkscape="http://www.inkscape.org/namespaces/inkscape"
   width="100"
   height="100"
   viewBox="0 0 100 100"
   id="svg6845"
   version="1.1"
   inkscape:version="0.91 r13725"
   sodipodi:docname="cell_keyboard.svg">
  <defs
     id="defs6847" />
  <sodipodi:namedview
     id="base"
     pagecolor="#ffffff"
     bordercolor="#666666"
     borderopacity="1.0"
     inkscape:pageopacity="0.0"
     inkscape:pageshadow="2"
     inkscape:zoom="3.959798"
     inkscape:cx="12.379252"
     inkscape:cy="47.662901"
     inkscape:document-units="px"
     inkscape:current-layer="layer1"
     showgrid="false"
     inkscape:window-width="1366"
     inkscape:window-height="745"
     inkscape:window-x="-8"
     inkscape:window-y="-8"
     inkscape:window-maximized="1"
     units="px" />
  <metadata
     id="metadata6850">
    <rdf:RDF>
      <cc:Work
         rdf:about="">
        <dc:format>image/svg+xml</dc:format>
        <dc:type
           rdf:resource="http://purl.org/dc/dcmitype/StillImage" />
        <dc:title />
      </cc:Work>
    </rdf:RDF>
  </metadata>
  <g
     inkscape:groupmode="layer"
     id="layer3"
     inkscape:label="base"
     style="display:inline"
     transform="translate(0,-952.36214)">
    <path
       inkscape:connector-curvature="0"
       id="path4143"
       d="m 15.507384,959.17556 65.904145,0 12.003323,6.93013 5.903346,10.22489 0,61.49602 -6.919256,6.9193 -9.191176,2.4628 -66.34433,0 -9.1539047,-5.285 -5.6312815,-9.7537 0,-58.62028 3.3462985,-12.48856 z"
       style="display:inline;fill:#273f47;fill-opacity:1;fill-rule:evenodd;stroke:none;stroke-width:1px;stroke-linecap:butt;stroke-linejoin:miter;stroke-opacity:1" />
  </g>
  <g
     inkscape:label="design"
     inkscape:groupmode="layer"
     id="layer1"
     style="display:inline"
     transform="translate(0,-952.36214)">
    <path
       style="fill:#b2babd;fill-opacity:1;fill-rule:evenodd;stroke:none;stroke-width:1px;stroke-linecap:butt;stroke-linejoin:miter;stroke-opacity:1"
       d="m 19.575278,964.26367 58.285939,0 10.615795,6.12903 5.220948,9.04295 0,54.38735 -6.119423,6.1195 -8.12872,2.1781 -58.67524,0 -8.095757,-4.6741 -4.980332,-8.6262 0,-51.84406 2.959482,-11.04494 z"
       id="path4141"
       inkscape:connector-curvature="0" />
  </g>
</svg>
