<?xml version="1.0" encoding="UTF-8" standalone="no"?>
<svg
   xmlns:dc="http://purl.org/dc/elements/1.1/"
   xmlns:cc="http://creativecommons.org/ns#"
   xmlns:rdf="http://www.w3.org/1999/02/22-rdf-syntax-ns#"
   xmlns:svg="http://www.w3.org/2000/svg"
   xmlns="http://www.w3.org/2000/svg"
   xmlns:sodipodi="http://sodipodi.sourceforge.net/DTD/sodipodi-0.dtd"
   xmlns:inkscape="http://www.inkscape.org/namespaces/inkscape"
   sodipodi:docname="dead.svg"
   inkscape:version="1.0 (4035a4fb49, 2020-05-01)"
   version="1.1"
   id="svg6845"
   viewBox="0 0 100 100"
   height="100"
   width="100">
  <defs
     id="defs6847" />
  <sodipodi:namedview
     inkscape:snap-global="false"
     inkscape:document-rotation="0"
     units="px"
     inkscape:window-maximized="0"
     inkscape:window-y="71"
     inkscape:window-x="2310"
     inkscape:window-height="891"
     inkscape:window-width="1375"
     showgrid="false"
     inkscape:current-layer="layer1"
     inkscape:document-units="px"
     inkscape:cy="50.2129"
     inkscape:cx="7.2317847"
     inkscape:zoom="4"
     inkscape:pageshadow="2"
     inkscape:pageopacity="0.0"
     borderopacity="1.0"
     bordercolor="#666666"
     pagecolor="#ffffff"
     id="base" />
  <metadata
     id="metadata6850">
    <rdf:RDF>
      <cc:Work
         rdf:about="">
        <dc:format>image/svg+xml</dc:format>
        <dc:type
           rdf:resource="http://purl.org/dc/dcmitype/StillImage" />
        <dc:title />
      </cc:Work>
    </rdf:RDF>
  </metadata>
  <g
     transform="translate(0,-952.36214)"
     style="display:inline"
     inkscape:label="base"
     id="layer3"
     inkscape:groupmode="layer">
    <path
       id="path866"
       transform="translate(0,952.36214)"
       d="M 14.117188,66.753906 7.0214844,66.398438 4.8320312,70.800781 14.644531,85.355469 38.537109,86.320312 44.945898,92.751929 58,90.5 l 11.462891,5.570312 15.892578,-10.714843 3.949219,-5.857422 -5.759766,-3.71875 -1.914063,-2.720703 -3.123047,4.632812 -9.917968,6.6875 -4.246094,-4.791015 -12.197266,3.716797 -9.855468,-7.28125 -16.345704,4.669921 -4.453124,-3.001953 z"
       style="display:inline;opacity:1;fill:#1b1200;fill-opacity:1;stroke:none;stroke-width:4.606;stroke-linecap:round;stroke-linejoin:round;stroke-miterlimit:4;stroke-dasharray:none;stroke-dashoffset:0;stroke-opacity:1" />
  </g>
  <g
     inkscape:label="design"
     id="layer1"
     inkscape:groupmode="layer">
    <path
       id="path864"
       d="M 30.537109,3.9296875 19.144531,24.644531 8.4296875,40.537109 0,50 l 1.5195312,7.523438 9.4921878,-1.761719 -0.792969,-3.929688 12.283221,-11.76639 3.882795,11.727328 4.746093,-6.142578 0.03906,-13.25586 8.355469,-8.298828 -6.033203,-5.847656 6.564453,-6.462891 -4.890625,-5.9453122 z"
       style="display:inline;opacity:1;fill:#1b1200;fill-opacity:1;stroke:none;stroke-width:4.606;stroke-linecap:round;stroke-linejoin:round;stroke-miterlimit:4;stroke-dasharray:none;stroke-dashoffset:0;stroke-opacity:1" />
    <path
       id="path5062-4"
       d="m 61.896484,0.7148438 -9.953125,7.5703122 13.251953,5.587891 3.746094,4.607422 -5.228515,5.064453 -3.910157,12.550781 -7.832031,10.492188 -11.730469,8.658203 10.576172,2.689453 15.279297,-4.292969 7.958985,-5.007812 8.21875,1.253906 7.28125,-4.480469 0.761718,3.775391 -3.167968,15.693359 -0.0332,0.04883 3.273438,-2.408203 5.730469,6.707031 L 100,50 86.320312,34.037109 80.355469,17.394531 74.212891,3.1796875 Z"
       style="display:inline;opacity:1;fill:#1b1200;fill-opacity:1;stroke:none;stroke-width:4.606;stroke-linecap:round;stroke-linejoin:round;stroke-miterlimit:4;stroke-dasharray:none;stroke-dashoffset:0;stroke-opacity:1" />
  </g>
</svg>
