<?xml version="1.0" encoding="UTF-8" standalone="no"?>
<!-- Created with Inkscape (http://www.inkscape.org/) -->

<svg
   xmlns:dc="http://purl.org/dc/elements/1.1/"
   xmlns:cc="http://creativecommons.org/ns#"
   xmlns:rdf="http://www.w3.org/1999/02/22-rdf-syntax-ns#"
   xmlns:svg="http://www.w3.org/2000/svg"
   xmlns="http://www.w3.org/2000/svg"
   xmlns:sodipodi="http://sodipodi.sourceforge.net/DTD/sodipodi-0.dtd"
   xmlns:inkscape="http://www.inkscape.org/namespaces/inkscape"
   width="256"
   height="256"
   viewBox="0 0 256 256"
   id="svg2"
   version="1.1"
   inkscape:version="0.91 r13725"
   sodipodi:docname="egg.svg">
  <sodipodi:namedview
     id="base"
     pagecolor="#ffffff"
     bordercolor="#666666"
     borderopacity="1.0"
     inkscape:pageopacity="0.0"
     inkscape:pageshadow="2"
     inkscape:zoom="0.98994949"
     inkscape:cx="87.663547"
     inkscape:cy="164.43815"
     inkscape:document-units="px"
     inkscape:current-layer="layer2"
     showgrid="false"
     units="px"
     inkscape:window-width="1366"
     inkscape:window-height="745"
     inkscape:window-x="-8"
     inkscape:window-y="-8"
     inkscape:window-maximized="1" />
  <defs
     id="defs4" />
  <metadata
     id="metadata7">
    <rdf:RDF>
      <cc:Work
         rdf:about="">
        <dc:format>image/svg+xml</dc:format>
        <dc:type
           rdf:resource="http://purl.org/dc/dcmitype/StillImage" />
        <dc:title></dc:title>
      </cc:Work>
    </rdf:RDF>
  </metadata>
  <g
     inkscape:groupmode="layer"
     id="layer2"
     inkscape:label="main_back">
    <path
       sodipodi:nodetypes="ccccccccccccccccc"
       inkscape:connector-curvature="0"
       id="path8141"
       d="m 152.09816,128.00001 -1.89376,9.3801 -5.16443,7.65987 -7.65989,5.16443 -9.38009,1.89376 -9.38009,-1.89376 -7.65987,-5.16443 -5.16445,-7.65987 -1.89374,-9.3801 1.89374,-9.3801 5.16444,-7.65988 7.65988,-5.16443 9.38009,-1.89377 9.38009,1.89377 7.6599,5.16443 5.16442,7.65989 z"
       style="opacity:1;fill:#5feeff;fill-opacity:0.42441861;stroke:none;stroke-width:4;stroke-linecap:round;stroke-linejoin:round;stroke-miterlimit:4;stroke-dasharray:none;stroke-dashoffset:0;stroke-opacity:1" />
    <path
       style="opacity:1;fill:#0059f0;fill-opacity:0.70348834;stroke:none;stroke-width:4;stroke-linecap:round;stroke-linejoin:round;stroke-miterlimit:4;stroke-dasharray:none;stroke-dashoffset:0;stroke-opacity:1"
       d="m 149.60714,127.99999 -1.698,8.41048 -4.63059,6.86809 -6.86808,4.63058 -8.41048,1.698 -8.41047,-1.698 -6.86808,-4.63058 -4.63059,-6.86809 -1.698,-8.41048 1.698,-8.41047 4.63058,-6.86808 6.86809,-4.63059 8.41047,-1.698 8.41048,1.698 6.86809,4.63059 4.63058,6.86809 z"
       id="path4138"
       inkscape:connector-curvature="0"
       sodipodi:nodetypes="ccccccccccccccccc" />
  </g>
  <g
     inkscape:label="game"
     inkscape:groupmode="layer"
     id="layer1"
     transform="translate(0,-796.36216)">
    <path
       sodipodi:nodetypes="ccccccccccccccccc"
       inkscape:connector-curvature="0"
       id="path8137"
       d="m 146.3992,924.36216 -1.4459,7.1618 -3.94311,5.8484 -5.84838,3.9431 -7.16181,1.4459 -7.16179,-1.4459 -5.8484,-3.9431 -3.94311,-5.8484 -1.4459,-7.1618 1.4459,-7.16179 3.9431,-5.8484 5.84841,-3.94311 7.16179,-1.44591 7.16181,1.44591 5.8484,3.94311 3.94309,5.8484 z"
       style="opacity:1;fill:#001e50;fill-opacity:0.43604659;stroke:none;stroke-width:4;stroke-linecap:round;stroke-linejoin:round;stroke-miterlimit:4;stroke-dasharray:none;stroke-dashoffset:0;stroke-opacity:1" />
  </g>
  <g
     inkscape:groupmode="layer"
     id="layer5"
     inkscape:label="main_front">
    <path
       style="opacity:1;fill:#b5ecfe;fill-opacity:0.88372091;stroke:none;stroke-width:4;stroke-linecap:round;stroke-linejoin:round;stroke-miterlimit:4;stroke-dasharray:none;stroke-dashoffset:0;stroke-opacity:1"
       d="m 144.26052,128 -1.27784,6.32933 -3.48476,5.1686 -5.16859,3.48475 -6.32933,1.27784 -6.32933,-1.27784 -5.16859,-3.48475 -3.48476,-5.1686 -1.27784,-6.32933 1.27784,-6.32933 3.48475,-5.16859 5.1686,-3.48476 6.32933,-1.27784 6.32933,1.27784 5.1686,3.48476 3.48475,5.16859 z"
       id="path8135"
       inkscape:connector-curvature="0"
       sodipodi:nodetypes="ccccccccccccccccc" />
    <path
       sodipodi:nodetypes="ccccccccccccccccc"
       inkscape:connector-curvature="0"
       id="path8133"
       d="m 142.56672,128 -1.14473,5.67002 -3.12176,4.63022 -4.63021,3.12175 -5.67002,1.14473 -5.67002,-1.14473 -4.63021,-3.12175 -3.12176,-4.63022 -1.14473,-5.67002 1.14473,-5.67002 3.12175,-4.63021 4.63022,-3.12176 5.67002,-1.14473 5.67002,1.14473 4.63022,3.12176 3.12175,4.63021 z"
       style="opacity:1;fill:#0057ea;fill-opacity:0.82558139;stroke:none;stroke-width:4;stroke-linecap:round;stroke-linejoin:round;stroke-miterlimit:4;stroke-dasharray:none;stroke-dashoffset:0;stroke-opacity:1" />
    <path
       style="opacity:1;fill:#18f7ff;fill-opacity:0.7093023;stroke:none;stroke-width:4;stroke-linecap:round;stroke-linejoin:round;stroke-miterlimit:4;stroke-dasharray:none;stroke-dashoffset:0;stroke-opacity:1"
       d="m 136.1624,126.05861 0.77042,5.45971 -2.30081,2.88337 -2.82023,0.91184 -1.73477,5.95337 -3.43939,-5.19576 -3.95664,-1.22751 -1.92201,-2.50457 -1.69179,-3.31312 1.18672,-3.88134 2.61647,-3.07276 4.27233,-3.18469 -0.60122,-4.15405 3.09866,1.64661 2.40336,1.65152 2.55333,4.01979 z"
       id="path8147"
       inkscape:connector-curvature="0"
       sodipodi:nodetypes="ccccccccccccccccc" />
    <path
       style="opacity:1;fill:#e0fcfe;fill-opacity:1;stroke:none;stroke-width:4;stroke-linecap:round;stroke-linejoin:round;stroke-miterlimit:4;stroke-dasharray:none;stroke-dashoffset:0;stroke-opacity:1"
       d="m 132.94667,113.04332 -4.00287,4.60627 -0.17568,9.98407 -0.38923,6.54232 2.47036,8.31997 -6.09936,0.46073 2.14504,-3.03577 -0.003,-5.63575 0.55389,-5.96709 -1.20627,-12.08202 -3.18622,-2.96685 z"
       id="path4141"
       inkscape:connector-curvature="0"
       sodipodi:nodetypes="cccccccccccc" />
  </g>
</svg>
