<?xml version="1.0" encoding="UTF-8" standalone="no"?>
<svg
   xmlns:dc="http://purl.org/dc/elements/1.1/"
   xmlns:cc="http://creativecommons.org/ns#"
   xmlns:rdf="http://www.w3.org/1999/02/22-rdf-syntax-ns#"
   xmlns:svg="http://www.w3.org/2000/svg"
   xmlns="http://www.w3.org/2000/svg"
   xmlns:sodipodi="http://sodipodi.sourceforge.net/DTD/sodipodi-0.dtd"
   xmlns:inkscape="http://www.inkscape.org/namespaces/inkscape"
   width="100"
   height="100"
   viewBox="0 0 100 100"
   id="svg2"
   version="1.1"
   inkscape:version="1.0.1 (3bc2e813f5, 2020-09-07)"
   sodipodi:docname="mouth_jaw.svg">
  <defs
     id="defs4" />
  <sodipodi:namedview
     id="base"
     pagecolor="#ffffff"
     bordercolor="#666666"
     borderopacity="1.0"
     inkscape:pageopacity="0.0"
     inkscape:pageshadow="2"
     inkscape:zoom="5.6568542"
     inkscape:cx="4.9414423"
     inkscape:cy="35.666012"
     inkscape:document-units="px"
     inkscape:current-layer="layer1"
     showgrid="false"
     units="px"
     inkscape:window-width="1204"
     inkscape:window-height="748"
     inkscape:window-x="419"
     inkscape:window-y="87"
     inkscape:window-maximized="0"
     showguides="true"
     inkscape:snap-global="false"
     inkscape:document-rotation="0" />
  <metadata
     id="metadata7">
    <rdf:RDF>
      <cc:Work
         rdf:about="">
        <dc:format>image/svg+xml</dc:format>
        <dc:type
           rdf:resource="http://purl.org/dc/dcmitype/StillImage" />
        <dc:title />
      </cc:Work>
    </rdf:RDF>
  </metadata>
  <g
     inkscape:groupmode="layer"
     id="layer13"
     inkscape:label="region_eat">
    <path
       id="path900"
       d="M 32.271758,70.761537 13.464051,65.762 17.117742,49.62252 13.464051,34.238 32.271758,29.238464 48.240281,49.62252 Z"
       style="display:inline;fill:#7882e3;fill-opacity:1;fill-rule:nonzero;stroke:none;stroke-width:0.99999994"
       inkscape:connector-curvature="0"
       sodipodi:nodetypes="ccccccc" />
  </g>
  <g
     inkscape:groupmode="layer"
     id="layer16"
     inkscape:label="joint_weld_base_region">
    <path
       inkscape:connector-curvature="0"
       style="display:inline;fill:#f869bb;fill-opacity:1;fill-rule:nonzero;stroke:none"
       d="m 28.173757,52.199983 h -2.47998 L 24.413787,49.96 l 1.27999,-2.159984 h 2.47998 L 29.453747,49.96 Z"
       id="path870" />
  </g>
  <g
     inkscape:label="base"
     inkscape:groupmode="layer"
     id="layer1"
     transform="translate(0,-952.36216)">
    <path
       style="opacity:1;fill:#3c3ca5;fill-opacity:1;stroke:none;stroke-width:3;stroke-linecap:round;stroke-linejoin:round;stroke-miterlimit:4;stroke-dasharray:none;stroke-dashoffset:0;stroke-opacity:1"
       d="m 9.8541548,989.78466 -4.8931539,1.00115 -3.9908588,2.70581 -0.98050689,4.00503 0.0254691,9.79145 1.00131249,3.9907 4.0048498,2.6852 4.8982965,0.9756 4.8931229,-1.001 4.767747,-2.706 -2.503845,-4.0049 4.738995,-4.8982 -4.764457,-4.89323 2.483007,-3.99088 -4.781693,-2.68505 z"
       id="path4256"
       inkscape:connector-curvature="0"
       sodipodi:nodetypes="cccccccccccccccc" />
  </g>
  <g
     inkscape:groupmode="layer"
     id="layer5"
     inkscape:label="bot1">
    <path
       inkscape:transform-center-y="22.659745"
       inkscape:transform-center-x="-4.54385"
       sodipodi:nodetypes="cccccccccc"
       inkscape:connector-curvature="0"
       id="path4261"
       d="m 15.080356,60.43205 -6.6845427,-4.281779 -4.6637039,2.76062 6.4804816,13.502976 3.466668,5.44299 10.413846,8.878997 4.045726,-2.493277 -0.04044,-4.702104 -6.673989,-4.284126 -4.345283,-6.358063"
       style="fill:#479f43;fill-opacity:1;fill-rule:evenodd;stroke:none;stroke-width:1px;stroke-linecap:butt;stroke-linejoin:miter;stroke-opacity:1" />
  </g>
  <g
     inkscape:groupmode="layer"
     id="layer17"
     inkscape:label="joint_rweak_base_bot1">
    <path
       id="path849"
       d="M 9.2796967,61.522509 H 6.7997169 l -1.27999,-2.239983 1.27999,-2.159984 h 2.4799798 l 1.2799903,2.159984 z"
       style="display:inline;fill:#f869bb;fill-opacity:1;fill-rule:nonzero;stroke:none"
       inkscape:connector-curvature="0" />
  </g>
  <g
     inkscape:groupmode="layer"
     id="layer7"
     inkscape:label="bot2_tooth">
    <path
       inkscape:transform-center-y="35.297527"
       inkscape:transform-center-x="-30.502821"
       sodipodi:nodetypes="ccccccccc"
       inkscape:connector-curvature="0"
       id="path4265"
       d="m 23.700034,86.535888 -0.317475,-4.950738 4.046739,-2.720546 5.688532,2.231185 8.594573,0.03635 10.418427,-2.43317 -8.753696,6.654094 -12.811496,2.656126 z"
       style="fill:#275926;fill-opacity:1;fill-rule:evenodd;stroke:none;stroke-width:1px;stroke-linecap:butt;stroke-linejoin:miter;stroke-opacity:1" />
  </g>
  <g
     inkscape:groupmode="layer"
     id="layer18"
     inkscape:label="joint_rweak_bot1_bot2">
    <path
       inkscape:connector-curvature="0"
       style="display:inline;fill:#f869bb;fill-opacity:1;fill-rule:nonzero;stroke:none"
       d="m 26.428745,84.656393 h -2.47998 l -1.27999,-2.239983 1.27999,-2.159984 h 2.47998 l 1.27999,2.159984 z"
       id="path856" />
  </g>
  <g
     inkscape:groupmode="layer"
     id="layer19"
     inkscape:label="top1">
    <path
       style="fill:#479f43;fill-opacity:1;fill-rule:evenodd;stroke:none;stroke-width:1px;stroke-linecap:butt;stroke-linejoin:miter;stroke-opacity:1"
       d="m 15.080356,39.47741 -6.6845427,4.281779 -4.6637039,-2.76062 6.4804816,-13.502976 3.466668,-5.44299 10.413846,-8.878997 4.045726,2.493277 -0.04044,4.702104 -6.673989,4.284126 -4.345283,6.358063"
       id="path863"
       inkscape:connector-curvature="0"
       sodipodi:nodetypes="cccccccccc"
       inkscape:transform-center-x="-4.54385"
       inkscape:transform-center-y="-22.659745" />
  </g>
  <g
     inkscape:groupmode="layer"
     id="layer20"
     inkscape:label="joint_rweak_base_top1">
    <path
       inkscape:connector-curvature="0"
       style="display:inline;fill:#f869bb;fill-opacity:1;fill-rule:nonzero;stroke:none"
       d="M 9.2796967,38.386951 H 6.7997169 l -1.27999,2.239983 1.27999,2.159984 h 2.4799798 l 1.2799903,-2.159984 z"
       id="path865" />
  </g>
  <g
     inkscape:groupmode="layer"
     id="layer22"
     inkscape:label="top2_tooth">
    <path
       style="fill:#275926;fill-opacity:1;fill-rule:evenodd;stroke:none;stroke-width:1px;stroke-linecap:butt;stroke-linejoin:miter;stroke-opacity:1"
       d="m 23.700034,13.373572 -0.317475,4.950738 4.046739,2.720546 5.688532,-2.231185 8.594573,-0.03635 10.418427,2.43317 -8.753696,-6.654094 -12.811496,-2.656126 z"
       id="path867"
       inkscape:connector-curvature="0"
       sodipodi:nodetypes="ccccccccc"
       inkscape:transform-center-x="-30.502821"
       inkscape:transform-center-y="-35.297527" />
  </g>
  <g
     inkscape:groupmode="layer"
     id="layer21"
     inkscape:label="joint_rweak_top1_top2">
    <path
       id="path869"
       d="m 26.428745,15.253067 h -2.47998 l -1.27999,2.239983 1.27999,2.159984 h 2.47998 l 1.27999,-2.159984 z"
       style="display:inline;fill:#f869bb;fill-opacity:1;fill-rule:nonzero;stroke:none"
       inkscape:connector-curvature="0" />
  </g>
</svg>
