<?xml version="1.0" encoding="UTF-8" standalone="no"?>
<!-- Created with Inkscape (http://www.inkscape.org/) -->

<svg
   xmlns:dc="http://purl.org/dc/elements/1.1/"
   xmlns:cc="http://creativecommons.org/ns#"
   xmlns:rdf="http://www.w3.org/1999/02/22-rdf-syntax-ns#"
   xmlns:svg="http://www.w3.org/2000/svg"
   xmlns="http://www.w3.org/2000/svg"
   xmlns:sodipodi="http://sodipodi.sourceforge.net/DTD/sodipodi-0.dtd"
   xmlns:inkscape="http://www.inkscape.org/namespaces/inkscape"
   width="256"
   height="256"
   viewBox="0 0 256 256"
   id="svg2"
   version="1.1"
   inkscape:version="0.92.3 (2405546, 2018-03-11)"
   sodipodi:docname="mushroom_blue_right_2.svg">
  <sodipodi:namedview
     id="base"
     pagecolor="#ffffff"
     bordercolor="#666666"
     borderopacity="1.0"
     inkscape:pageopacity="0.0"
     inkscape:pageshadow="2"
     inkscape:zoom="1.979899"
     inkscape:cx="243.6576"
     inkscape:cy="156.54092"
     inkscape:document-units="px"
     inkscape:current-layer="layer1"
     showgrid="false"
     units="px"
     inkscape:window-width="1920"
     inkscape:window-height="1057"
     inkscape:window-x="-8"
     inkscape:window-y="-8"
     inkscape:window-maximized="1"
     inkscape:snap-global="false" />
  <defs
     id="defs4" />
  <metadata
     id="metadata7">
    <rdf:RDF>
      <cc:Work
         rdf:about="">
        <dc:format>image/svg+xml</dc:format>
        <dc:type
           rdf:resource="http://purl.org/dc/dcmitype/StillImage" />
        <dc:title />
      </cc:Work>
    </rdf:RDF>
  </metadata>
  <g
     transform="translate(0,-796.36216)"
     id="layer1"
     inkscape:groupmode="layer"
     inkscape:label="main">
    <path
       sodipodi:nodetypes="cccccccccccccccc"
       inkscape:connector-curvature="0"
       id="path3793-4"
       d="m 223.18191,910.81911 20.23071,-0.27893 17.79939,-0.2298 9.40883,-2.2868 3.00121,-9.36246 -1.30613,-11.63338 -5.2577,-8.54015 -13.14645,-9.29729 -18.43291,-3.9498 -15.46049,0.57528 -14.04737,4.86996 -11.9472,9.67476 -5.24754,8.62193 0.71173,10.72838 13.42405,8.11261 z"
       style="fill:#002b53;fill-opacity:1;stroke:none;stroke-width:0.99999994px;stroke-linecap:butt;stroke-linejoin:miter;stroke-opacity:1" />
    <path
       sodipodi:nodetypes="cccccccccccccc"
       inkscape:connector-curvature="0"
       id="path3795-6"
       d="m 192.84421,900.62576 0.49681,-8.28801 18.63255,-3.7838 13.92079,0.83153 23.57341,2.66654 14.87115,7.10071 5.60844,5.32327 -0.23546,2.74655 -12.02532,3.12589 -16.92715,-0.0503 -12.63931,0.58364 -21.53181,-2.77349 -9.30255,-4.04081 z"
       style="fill:#0c456a;fill-opacity:1;stroke:none;stroke-width:0.99999994px;stroke-linecap:butt;stroke-linejoin:miter;stroke-opacity:1" />
    <path
       style="fill:#1b3842;fill-opacity:1;stroke:none;stroke-width:0.99999994px;stroke-linecap:butt;stroke-linejoin:miter;stroke-opacity:1"
       d="m 105.18515,936.14626 6.39762,9.38316 11.51575,-0.21316 7.03739,-3.62525 3.62533,-9.3832 6.82412,-8.95672 16.42061,-4.05181 28.97458,4.8319 25.34351,2.18868 13.07024,-4.03506 5.54465,-2.3458 7.03736,-7.67716 1.91929,-5.11805 -1.70605,-10.23625 7.50324,-6.43132 -23.86209,-1.79021 4.20336,10.99382 0.85304,6.8242 -3.41208,5.11808 -5.75784,4.69161 -9.38317,1.70604 -22.81826,-2.13252 -17.06033,-4.05188 -13.00849,-1.06628 -12.15553,1.91932 c 0,0 -8.74342,1.91928 -10.02295,2.55904 -1.27952,0.63976 -11.08922,8.31688 -11.08922,8.31688 l -8.95668,5.3314 z"
       id="path3799-2"
       inkscape:connector-curvature="0"
       sodipodi:nodetypes="ccccccccccccccccccccccccccccc" />
  </g>
</svg>
