levels/tutorials/full/script_help.mc,0,4445
levels/tutorials/full/level.mc,4445,1060
levels/races/rubyridge/level.mc,5505,935
levels/labs/experiment/level.mc,6440,3426
levels/labs/actionpotentials/level.mc,9866,2176
levels/backgrounds/cave/cave.mc,12042,922
levels/areas/seweebay/level.mc,12964,749
levels/areas/sandflats/level.mc,13713,612
levels/areas/opensea/level.mc,14325,618
levels/areas/empty/level.mc,14943,590
levels/areas/caverns/level.mc,15533,598
limbs/senses/whisker.mc,16131,839
limbs/senses/orientation.mc,16970,570
limbs/senses/eye.mc,17540,707
limbs/organs/weight_balloon.mc,18247,720
limbs/organs/weight_ballast.mc,18967,571
limbs/organs/sucker.mc,19538,827
limbs/organs/mouth_nibbler.mc,20365,696
limbs/organs/mouth_molars.mc,21061,698
limbs/organs/mouth_jaw.mc,21759,687
limbs/organs/larynx.mc,22446,1294
limbs/organs/jet.mc,23740,709
limbs/organs/harpoon.mc,24449,734
limbs/decoration/fiber.mc,25183,522
limbs/decoration/camouflage.mc,25705,542
limbs/basic/spine.mc,26247,481
limbs/basic/nub_spindle.mc,26728,522
limbs/basic/nub_plate.mc,27250,473
limbs/basic/nub_basic.mc,27723,481
limbs/basic/hip.mc,28204,579
limbs/basic/hinge.mc,28783,476
limbs/basic/fin.mc,29259,527
limbs/basic/block.mc,29786,481
levels/tutorials/headquarters_icon.mc,30267,325
levels/tutorials/headquarters.mc,30592,581
levels/races/script_race.mc,31173,5400
levels/races/rubyridge.mc,36573,474
levels/areas/crater.mc,37047,278
tilesets/scripts.txt,37325,17
tilesets/ocean.mc,37342,5308
tilesets/game.mc,42650,3579
synapses/synapse_modulate.mc,46229,760
synapses/synapse_glutamate.mc,46989,412
synapses/synapse_gaba.mc,47401,399
synapses/scripts.txt,47800,60
stamps/simple.mc,47860,1748
stamps/seabed.mc,49608,1505
stamps/scripts.txt,51113,63
stamps/scenery_walls.mc,51176,1406
stamps/scenery_seaweed.mc,52582,1229
stamps/scenery.mc,53811,896
stamps/race_start_singlechamber.mc,54707,941
stamps/race_start.mc,55648,816
stamps/race_end.mc,56464,449
stamps/race_corridor.mc,56913,1168
stamps/prop_obelisk.mc,58081,420
stamps/extracreatures.mc,58501,420
stamps/empty.mc,58921,858
stamps/cryopod.mc,59779,1847
manuals/scripts.txt,61626,191
limbs/scripts.txt,61817,420
lights/smallblue.mc,62237,188
lights/medblue.mc,62425,187
lights/hugeblue.mc,62612,187
lights/capturegold.mc,62799,188
lights/bioyellow.mc,62987,188
lights/bigblue.mc,63175,189
levels/template_level.mc,63364,615
levels/scripts.txt,63979,173
channels/channel_vgsc_simulated.mc,64152,969
channels/channel_vgsc.mc,65121,996
channels/channel_vgkc_simulated.mc,66117,987
channels/channel_vgkc.mc,67104,555
channels/channel_stochastic_na.mc,67659,575
channels/channel_stochastic_k.mc,68234,627
channels/channel_spikefreqadapt.mc,68861,540
channels/channel_sensory_weak.mc,69401,513
channels/channel_sensory.mc,69914,479
channels/channel_queer_variable.mc,70393,691
channels/channel_queer.mc,71084,638
channels/channel_pre_serotonin.mc,71722,447
channels/channel_pre_noradrenaline.mc,72169,454
channels/channel_pre_glutamate.mc,72623,447
channels/channel_pre_gaba.mc,73070,438
channels/channel_post_serotonin.mc,73508,493
channels/channel_post_noradrenaline.mc,74001,497
channels/channel_post_glutamate.mc,74498,477
channels/channel_post_gaba.mc,74975,414
channels/channel_plateau.mc,75389,433
channels/channel_pacemaker.mc,75822,1024
channels/channel_leak_small_na.mc,76846,169
channels/channel_leak_small_k.mc,77015,165
channels/channel_leak_na.mc,77180,154
channels/channel_leak_k.mc,77334,152
channels/channel_leak_big_na.mc,77486,168
channels/channel_leak_big_k.mc,77654,166
channels/channel_keyboard.mc,77820,510
channels/channel_delay_wait.mc,78330,1073
channels/channel_delay_fire.mc,79403,1068
channels/channel_alwayson.mc,80471,316
channels/channel_adaptor_close.mc,80787,785
channels/channel_adaptor.mc,81572,809
cells/soma_sensory_graded.mc,82381,635
cells/soma_sensory_eye.mc,83016,1036
cells/soma_sensory.mc,84052,422
cells/soma_queer.mc,84474,441
cells/soma_plateau.mc,84915,369
cells/soma_photophore.mc,85284,866
cells/soma_pacemaker_simulated.mc,86150,1476
cells/soma_pacemaker.mc,87626,1697
cells/soma_orientation_base.mc,89323,966
cells/soma_motor_jet.mc,90289,451
cells/soma_motor.mc,90740,550
cells/soma_keyboard.mc,91290,1354
cells/soma_harpoon_base.mc,92644,735
cells/soma_delay.mc,93379,1345
cells/soma_default_simulated.mc,94724,405
cells/soma_default.mc,95129,689
cells/soma_alwayson.mc,95818,1348
cells/soma_adaptor.mc,97166,472
cells/scripts.txt,97638,119
cells/neurite_dendrite.mc,97757,310
cells/neurite_axon_simulated.mc,98067,463
cells/neurite_axon.mc,98530,496
credits.txt,99026,4124
