<?xml version="1.0" encoding="UTF-8" standalone="no"?>
<!-- Created with Inkscape (http://www.inkscape.org/) -->

<svg
   xmlns:dc="http://purl.org/dc/elements/1.1/"
   xmlns:cc="http://creativecommons.org/ns#"
   xmlns:rdf="http://www.w3.org/1999/02/22-rdf-syntax-ns#"
   xmlns:svg="http://www.w3.org/2000/svg"
   xmlns="http://www.w3.org/2000/svg"
   xmlns:sodipodi="http://sodipodi.sourceforge.net/DTD/sodipodi-0.dtd"
   xmlns:inkscape="http://www.inkscape.org/namespaces/inkscape"
   width="40"
   height="40"
   viewBox="0 0 40 40.000001"
   id="svg7565"
   version="1.1"
   inkscape:version="0.92.3 (2405546, 2018-03-11)"
   sodipodi:docname="map_icon_hq.svg"
   inkscape:export-filename="C:\Users\wick\Dropbox\wickFolder\projects\crescentloom\crescentloom.data\gfx\gui\icon_help.png"
   inkscape:export-xdpi="90.000198"
   inkscape:export-ydpi="90.000198">
  <defs
     id="defs7567" />
  <sodipodi:namedview
     id="base"
     pagecolor="#ffffff"
     bordercolor="#666666"
     borderopacity="1.0"
     inkscape:pageopacity="0.0"
     inkscape:pageshadow="2"
     inkscape:zoom="2.8"
     inkscape:cx="50.009545"
     inkscape:cy="3.1785576"
     inkscape:document-units="px"
     inkscape:current-layer="layer1"
     showgrid="false"
     units="px"
     inkscape:window-width="984"
     inkscape:window-height="575"
     inkscape:window-x="593"
     inkscape:window-y="195"
     inkscape:window-maximized="0"
     inkscape:snap-global="false" />
  <metadata
     id="metadata7570">
    <rdf:RDF>
      <cc:Work
         rdf:about="">
        <dc:format>image/svg+xml</dc:format>
        <dc:type
           rdf:resource="http://purl.org/dc/dcmitype/StillImage" />
        <dc:title />
      </cc:Work>
    </rdf:RDF>
  </metadata>
  <g
     inkscape:label="bottom"
     inkscape:groupmode="layer"
     id="layer1"
     transform="translate(0,-1012.3622)">
    <path
       style="opacity:1;fill:#bfbf90;fill-opacity:1;stroke:none;stroke-width:2.68412399;stroke-linejoin:miter;stroke-miterlimit:4;stroke-dasharray:none;stroke-opacity:1;paint-order:markers stroke fill"
       d="m 15.81614,1026.3624 h 15.90461 l 1.06662,0.4404 0.44043,1.0666 v 19.3647 l -0.44043,1.0666 -1.06662,0.4404 H 7.8611897 l -1.0666101,-0.4404 -0.44043,-1.0666 v -12.0411 z"
       id="rect9347-7"
       inkscape:connector-curvature="0"
       sodipodi:nodetypes="cccccccccccc" />
    <path
       style="opacity:1;fill:#7e7e55;fill-opacity:1;stroke:none;stroke-width:2.3846817;stroke-linejoin:miter;stroke-miterlimit:4;stroke-dasharray:none;stroke-opacity:1;paint-order:markers stroke fill"
       d="M 4.7315396,1032.8118 H 23.78111 l 1.8616,0.7688 0.76871,1.8616 v 11.0473 l -0.76871,1.8616 -1.8616,0.7687 H -2.6970004 v -8.6937 z"
       id="rect9349-6"
       inkscape:connector-curvature="0"
       sodipodi:nodetypes="cccccccccc" />
  </g>
  <g
     inkscape:groupmode="layer"
     id="layer2"
     inkscape:label="middle">
    <path
       transform="translate(0,-1012.3622)"
       sodipodi:nodetypes="ccccccccccccccccccccccc"
       inkscape:connector-curvature="0"
       id="path9317"
       d="m 23.453571,1027.3362 2.00233,-2.844 3.11959,-2.8442 7.97283,-5.252 15.638716,-9.1278 0.56871,3.2204 0.4038,4.4069 -0.38455,4.5572 -0.95386,3.9121 -1.14118,2.7471 -3.44824,5.7381 -3.489618,4.5591 -3.96329,4.4658 5.918918,-0.9551 12.23964,-3.0084 -4.80388,3.6906 -13.273378,7.6383 -8.153908,2.2439 -15.53075,0.9365 1.82709,-5.0065 1.19514,-6.9545 1.85973,-6.9897 z"
       style="fill:#391409;fill-opacity:1;stroke:none;stroke-width:0.37496957px;stroke-linecap:butt;stroke-linejoin:miter;stroke-opacity:1" />
    <path
       transform="translate(0,-1012.3622)"
       sodipodi:nodetypes="ccccccccccccccc"
       inkscape:connector-curvature="0"
       id="path9319"
       d="m 35.582931,1041.9535 -0.71953,4.0613 -1.43527,1.9196 -2.16358,1.1251 -4.31659,0.9378 -10.98905,-1.1791 1.25768,-6.8647 0.72166,-3.5745 1.96804,-2.9191 2.91897,-1.968 3.57451,-0.7216 3.5745,0.7216 2.91896,1.968 1.96803,2.9191 z"
       style="opacity:1;fill:#bd6145;fill-opacity:1;stroke:none;stroke-width:1.00470555;stroke-linecap:round;stroke-linejoin:round;stroke-miterlimit:4;stroke-dasharray:none;stroke-dashoffset:0;stroke-opacity:1" />
    <path
       transform="translate(0,-1012.3622)"
       sodipodi:nodetypes="cccccccccccccccccccccccccccc"
       inkscape:connector-curvature="0"
       id="path9321"
       d="m 52.187297,1007.2684 -15.637936,9.1272 -8.19783,5.1625 -2.89587,2.9339 -4.3702,4.4532 -13.6055903,14.7079 -0.73482,2.3166 -1.41161,1.5605 -2.12708,1.6456 12.5633303,2.3185 7.36357,-0.5839 6.18685,-0.2574 3.69878,-1.0537 4.238568,-2.6818 6.50222,-4.3744 7.087098,-3.0023 6.87287,-2.5783 -12.21914,2.9799 -15.769406,3.0958 -9.41526,0.3751 3.20997,-6.2826 2.78068,-3.6876 4.38759,-3.3974 14.280456,-8.8816 0.34034,-2.7711 1.5431,-4.6738 2.75555,-4.2851 z"
       style="fill:#bfbf90;fill-opacity:1;stroke:none;stroke-width:0.37496957px;stroke-linecap:butt;stroke-linejoin:miter;stroke-opacity:1" />
  </g>
  <g
     inkscape:groupmode="layer"
     id="layer3"
     inkscape:label="top">
    <path
       transform="translate(0,-1012.3622)"
       style="display:inline;opacity:1;fill:#f0f0f0;fill-opacity:1;stroke:none;stroke-width:1.57974327;stroke-linecap:round;stroke-linejoin:bevel;stroke-miterlimit:4;stroke-dasharray:none;stroke-dashoffset:0;stroke-opacity:1"
       d="m 30.893251,1038.1108 -0.58256,1.4064 -1.40643,0.5826 -1.40642,-0.5826 -0.58255,-1.4064 0.58255,-1.4064 1.40642,-0.5826 1.40643,0.5826 z"
       id="path9308-1"
       inkscape:connector-curvature="0"
       sodipodi:nodetypes="ccccccccc" />
  </g>
</svg>
