11:18:37 PM.385: CPU Name: Intel(R) Core(TM) i5-2540M CPU @ 2.60GHz
11:18:37 PM.385: CPU Speed: 1973.010MHz
11:18:37 PM.385: Physical Cores: 2, Logical Cores: 4
11:18:37 PM.385: Physical Memory: 7840MB Total, 2026MB Free
11:18:37 PM.385: Kernel Version: Linux 5.10.30-1-MANJARO
11:18:37 PM.385: Distribution: "Manjaro Linux" Unknown
11:18:37 PM.385: Session Type: x11
11:18:37 PM.386: Window System: X11.0, Vendor: The X.Org Foundation, Version: 1.20.11
11:18:37 PM.387: Portable mode: false
11:18:37 PM.546: OBS 26.1.2-2 (linux)
11:18:37 PM.546: ---------------------------------
11:18:37 PM.547: ---------------------------------
11:18:37 PM.547: audio settings reset:
11:18:37 PM.547: 	samples per sec: 48000
11:18:37 PM.547: 	speakers:        2
11:18:37 PM.549: ---------------------------------
11:18:37 PM.549: Initializing OpenGL...
11:18:37 PM.589: Loading up OpenGL on adapter Intel Open Source Technology Center Mesa DRI Intel(R) HD Graphics 3000 (SNB GT2)
11:18:37 PM.589: OpenGL loaded successfully, version 3.3 (Core Profile) Mesa 21.0.2, shading language 3.30
11:18:37 PM.616: ---------------------------------
11:18:37 PM.616: video settings reset:
11:18:37 PM.616: 	base resolution:   1600x900
11:18:37 PM.616: 	output resolution: 1280x720
11:18:37 PM.616: 	downscale filter:  Bicubic
11:18:37 PM.616: 	fps:               30/1
11:18:37 PM.616: 	format:            NV12
11:18:37 PM.616: 	YUV mode:          709/Partial
11:18:37 PM.616: NV12 texture support not available
11:18:37 PM.624: Audio monitoring device:
11:18:37 PM.624: 	name: Default
11:18:37 PM.624: 	id: default
11:18:37 PM.624: ---------------------------------
11:18:37 PM.627: Failed to load 'en-US' text for module: 'decklink-captions.so'
11:18:37 PM.632: Failed to load 'en-US' text for module: 'decklink-ouput-ui.so'
11:18:37 PM.767: A DeckLink iterator could not be created.  The DeckLink drivers may not be installed
11:18:37 PM.767: No blackmagic support
11:18:37 PM.783: v4l2loopback not installed, virtual camera disabled
11:18:37 PM.800: os_dlopen(libnvidia-encode.so.1->libnvidia-encode.so.1): libnvidia-encode.so.1: cannot open shared object file: No such file or directory
11:18:37 PM.800: 
11:18:37 PM.800: FFMPEG VAAPI supported
11:18:37 PM.826: VLC found, VLC video source enabled
11:18:37 PM.826: ---------------------------------
11:18:37 PM.826:   Loaded Modules:
11:18:37 PM.826:     vlc-video.so
11:18:37 PM.826:     text-freetype2.so
11:18:37 PM.827:     rtmp-services.so
11:18:37 PM.827:     obs-x264.so
11:18:37 PM.827:     obs-transitions.so
11:18:37 PM.827:     obs-outputs.so
11:18:37 PM.827:     obs-libfdk.so
11:18:37 PM.827:     obs-filters.so
11:18:37 PM.827:     obs-ffmpeg.so
11:18:37 PM.827:     linux-v4l2.so
11:18:37 PM.827:     linux-pulseaudio.so
11:18:37 PM.827:     linux-jack.so
11:18:37 PM.827:     linux-decklink.so
11:18:37 PM.827:     linux-capture.so
11:18:37 PM.827:     linux-alsa.so
11:18:37 PM.827:     image-source.so
11:18:37 PM.827:     frontend-tools.so
11:18:37 PM.827:     decklink-ouput-ui.so
11:18:37 PM.827:     decklink-captions.so
11:18:37 PM.827: ---------------------------------
11:18:37 PM.829: ==== Startup complete ===============================================
11:18:37 PM.839: All scene data cleared
11:18:37 PM.839: ------------------------------------------------
11:18:37 PM.856: pulse-input: Server name: 'pulseaudio 14.2'
11:18:37 PM.856: pulse-input: Audio format: s16le, 44100 Hz, 2 channels
11:18:37 PM.857: pulse-input: Started recording from 'alsa_output.pci-0000_00_1b.0.analog-stereo.monitor'
11:18:37 PM.857: [Loaded global audio device]: 'Desktop Audio'
11:18:37 PM.857: pulse-input: Server name: 'pulseaudio 14.2'
11:18:37 PM.857: pulse-input: Audio format: s16le, 44100 Hz, 2 channels
11:18:37 PM.857: pulse-input: Started recording from 'alsa_input.pci-0000_00_1b.0.analog-stereo'
11:18:37 PM.857: source 'Mic/Aux' enabled push-to-mute
11:18:37 PM.857: [Loaded global audio device]: 'Mic/Aux'
11:18:37 PM.858: xshm-input: Geometry 2560x1440 @ 0,0
11:18:37 PM.914: xcompcap: Unable to query window list because window manager does not support extended window manager Hints
11:18:37 PM.915: xshm-input: Geometry 2560x1440 @ 0,0
11:18:37 PM.943: xcompcap: Unable to query window list because window manager does not support extended window manager Hints
11:18:37 PM.943: xcompcap: Unable to query window list because window manager does not support extended window manager Hints
11:18:37 PM.944: xshm-input: Geometry 2560x1440 @ 0,0
11:18:37 PM.956: v4l2-input: Start capture from /dev/video0
11:18:38 PM.068: v4l2-input: Input: 0
11:18:38 PM.073: v4l2-input: Resolution: 640x480
11:18:38 PM.073: v4l2-input: Pixelformat: YUYV
11:18:38 PM.073: v4l2-input: Linesize: 1280 Bytes
11:18:38 PM.073: v4l2-input: Framerate: 30.00 fps
11:18:38 PM.074: Switched to scene 'One window'
11:18:38 PM.074: ------------------------------------------------
11:18:38 PM.074: Loaded scenes:
11:18:38 PM.074: - scene 'Dwarf fortress':
11:18:38 PM.074:     - source: 'df' (xcomposite_input)
11:18:38 PM.074: - scene 'Whole Screen':
11:18:38 PM.074:     - source: 'fullscreen' (xshm_input)
11:18:38 PM.074: - scene 'Coding':
11:18:38 PM.074:     - source: 'Background' (image_source)
11:18:38 PM.074:     - source: 'Screen' (xshm_input)
11:18:38 PM.074:     - source: 'Terminal' (xcomposite_input)
11:18:38 PM.074:     - source: 'Micro' (xcomposite_input)
11:18:38 PM.074: - scene 'Mountains':
11:18:38 PM.074:     - source: 'backdrop' (image_source)
11:18:38 PM.074: - scene 'One window':
11:18:38 PM.074:     - source: 'Screen Capture (XSHM)' (xshm_input)
11:18:38 PM.074:     - source: 'Video Capture Device (V4L2)' (v4l2_input)
11:18:38 PM.074: ------------------------------------------------
11:18:38 PM.141: [rtmp-services plugin] Successfully updated file 'services.json' (version 176)
11:18:38 PM.141: [rtmp-services plugin] Successfully updated package (version 176)
11:18:38 PM.434: adding 42 milliseconds of audio buffering, total audio buffering is now 42 milliseconds (source: Mic/Aux)
11:18:38 PM.434: 
11:18:47 PM.969: User switched to scene 'Mountains'
11:18:48 PM.763: User switched to scene 'One window'
11:18:49 PM.338: User switched to scene 'Mountains'
11:18:49 PM.863: User switched to scene 'Coding'
11:18:50 PM.549: User switched to scene 'Whole Screen'
11:18:51 PM.429: User switched to scene 'Dwarf fortress'
11:18:52 PM.586: xcompcap: Unable to query window list because window manager does not support extended window manager Hints
11:18:53 PM.456: xcompcap: Unable to query window list because window manager does not support extended window manager Hints
11:18:55 PM.489: xcompcap: Unable to query window list because window manager does not support extended window manager Hints
11:18:57 PM.523: xcompcap: Unable to query window list because window manager does not support extended window manager Hints
11:18:59 PM.556: xcompcap: Unable to query window list because window manager does not support extended window manager Hints
11:19:00 PM.358: xcompcap: Unable to query window list because window manager does not support extended window manager Hints
11:19:00 PM.390: xcompcap: Unable to query window list because window manager does not support extended window manager Hints
11:19:01 PM.589: xcompcap: Unable to query window list because window manager does not support extended window manager Hints
11:19:03 PM.623: xcompcap: Unable to query window list because window manager does not support extended window manager Hints
11:19:05 PM.656: xcompcap: Unable to query window list because window manager does not support extended window manager Hints
11:19:07 PM.689: xcompcap: Unable to query window list because window manager does not support extended window manager Hints
11:19:08 PM.096: xcompcap: Unable to query window list because window manager does not support extended window manager Hints
11:19:08 PM.123: xcompcap: Unable to query window list because window manager does not support extended window manager Hints
11:19:09 PM.723: xcompcap: Unable to query window list because window manager does not support extended window manager Hints
11:19:11 PM.756: xcompcap: Unable to query window list because window manager does not support extended window manager Hints
11:19:13 PM.216: User Removed source 'df' (xcomposite_input) from scene 'Dwarf fortress'
11:19:26 PM.742: xshm-input: Geometry 2560x1440 @ 0,0
11:19:26 PM.776: User added source 'Screen Capture (XSHM) 2' (xshm_input) to scene 'Dwarf fortress'
11:19:28 PM.327: xshm-input: Geometry 2560x1440 @ 0,0
11:19:30 PM.543: User Removed source 'Screen Capture (XSHM) 2' (xshm_input) from scene 'Dwarf fortress'
11:19:34 PM.994: xcompcap: Unable to query window list because window manager does not support extended window manager Hints
11:19:34 PM.996: User added source 'Window Capture (Xcomposite)' (xcomposite_input) to scene 'Dwarf fortress'
11:19:34 PM.999: xcompcap: Unable to query window list because window manager does not support extended window manager Hints
11:19:35 PM.023: xcompcap: Unable to query window list because window manager does not support extended window manager Hints
11:19:35 PM.028: xcompcap: Unable to query window list because window manager does not support extended window manager Hints
11:19:37 PM.023: xcompcap: Unable to query window list because window manager does not support extended window manager Hints
11:19:39 PM.056: xcompcap: Unable to query window list because window manager does not support extended window manager Hints
11:19:40 PM.802: xcompcap: Unable to query window list because window manager does not support extended window manager Hints
11:19:40 PM.823: xcompcap: Unable to query window list because window manager does not support extended window manager Hints
11:19:41 PM.089: xcompcap: Unable to query window list because window manager does not support extended window manager Hints
11:19:43 PM.123: xcompcap: Unable to query window list because window manager does not support extended window manager Hints
11:19:45 PM.156: xcompcap: Unable to query window list because window manager does not support extended window manager Hints
11:19:45 PM.542: User Removed source 'Window Capture (Xcomposite)' (xcomposite_input) from scene 'Dwarf fortress'
11:19:47 PM.029: User switched to scene 'Whole Screen'
11:21:13 PM.861: User switched to scene 'One window'
11:21:15 PM.582: User switched to scene 'Whole Screen'
11:21:20 PM.094: ==== Shutting down ==================================================
11:21:20 PM.155: v4l2-input: Stopped capture after 1941 frames
11:21:20 PM.179: pulse-input: Stopped recording from 'alsa_output.pci-0000_00_1b.0.analog-stereo.monitor'
11:21:20 PM.179: pulse-input: Got 95468 packets with 7158063 frames
11:21:20 PM.179: pulse-input: Stopped recording from 'alsa_input.pci-0000_00_1b.0.analog-stereo'
11:21:20 PM.179: pulse-input: Got 16181 packets with 7156728 frames
11:21:20 PM.180: All scene data cleared
11:21:20 PM.180: ------------------------------------------------
11:21:20 PM.267: [Scripting] Total detached callbacks: 0
11:21:20 PM.273: Freeing OBS context data
11:21:20 PM.324: == Profiler Results =============================
11:21:20 PM.324: run_program_init: 1004.95 ms
11:21:20 PM.324:  ┣OBSApp::AppInit: 7.798 ms
11:21:20 PM.324:  ┃ ┗OBSApp::InitLocale: 3.417 ms
11:21:20 PM.324:  ┗OBSApp::OBSInit: 798.477 ms
11:21:20 PM.324:    ┣obs_startup: 30.068 ms
11:21:20 PM.324:    ┗OBSBasic::OBSInit: 609.159 ms
11:21:20 PM.324:      ┣OBSBasic::InitBasicConfig: 0.108 ms
11:21:20 PM.324:      ┣OBSBasic::ResetAudio: 0.208 ms
11:21:20 PM.324:      ┣OBSBasic::ResetVideo: 76.815 ms
11:21:20 PM.324:      ┣OBSBasic::InitOBSCallbacks: 0.004 ms
11:21:20 PM.324:      ┣OBSBasic::InitHotkeys: 0.037 ms
11:21:20 PM.324:      ┣obs_load_all_modules: 202.81 ms
11:21:20 PM.324:      ┃ ┣obs_init_module(decklink-captions.so): 0.028 ms
11:21:20 PM.324:      ┃ ┣obs_init_module(decklink-ouput-ui.so): 2.533 ms
11:21:20 PM.324:      ┃ ┣obs_init_module(frontend-tools.so): 112.892 ms
11:21:20 PM.324:      ┃ ┣obs_init_module(image-source.so): 0.006 ms
11:21:20 PM.324:      ┃ ┣obs_init_module(linux-alsa.so): 0.002 ms
11:21:20 PM.324:      ┃ ┣obs_init_module(linux-capture.so): 0.339 ms
11:21:20 PM.324:      ┃ ┣obs_init_module(linux-decklink.so): 0.172 ms
11:21:20 PM.324:      ┃ ┣obs_init_module(linux-jack.so): 0.003 ms
11:21:20 PM.324:      ┃ ┣obs_init_module(linux-pulseaudio.so): 0.001 ms
11:21:20 PM.325:      ┃ ┣obs_init_module(linux-v4l2.so): 5.219 ms
11:21:20 PM.325:      ┃ ┣obs_init_module(obs-ffmpeg.so): 0.263 ms
11:21:20 PM.325:      ┃ ┃ ┗nvenc_check: 0.243 ms
11:21:20 PM.325:      ┃ ┣obs_init_module(obs-filters.so): 0.014 ms
11:21:20 PM.325:      ┃ ┣obs_init_module(obs-libfdk.so): 0.001 ms
11:21:20 PM.325:      ┃ ┣obs_init_module(obs-outputs.so): 0.001 ms
11:21:20 PM.325:      ┃ ┣obs_init_module(obs-transitions.so): 0.006 ms
11:21:20 PM.325:      ┃ ┣obs_init_module(obs-x264.so): 0.001 ms
11:21:20 PM.325:      ┃ ┣obs_init_module(rtmp-services.so): 1.338 ms
11:21:20 PM.325:      ┃ ┣obs_init_module(text-freetype2.so): 0.012 ms
11:21:20 PM.325:      ┃ ┗obs_init_module(vlc-video.so): 0.776 ms
11:21:20 PM.325:      ┣OBSBasic::ResetOutputs: 1.223 ms
11:21:20 PM.325:      ┣OBSBasic::CreateHotkeys: 0.227 ms
11:21:20 PM.325:      ┣OBSBasic::InitService: 3.245 ms
11:21:20 PM.325:      ┣OBSBasic::InitPrimitives: 0.172 ms
11:21:20 PM.325:      ┗OBSBasic::Load: 244.63 ms
11:21:20 PM.325: obs_hotkey_thread(25 ms): min=0.109 ms, median=0.316 ms, max=393.481 ms, 99th percentile=34.019 ms, 98.5932% below 25 ms
11:21:20 PM.325: audio_thread(Audio): min=0 ms, median=0.153 ms, max=0.974 ms, 99th percentile=0.476 ms
11:21:20 PM.325: obs_graphics_thread(33.3333 ms): min=0.113 ms, median=6.639 ms, max=379.863 ms, 99th percentile=78.046 ms, 97.1963% below 33.333 ms
11:21:20 PM.325:  ┣tick_sources: min=0 ms, median=5.652 ms, max=184.537 ms, 99th percentile=52.694 ms
11:21:20 PM.325:  ┣output_frame: min=0.086 ms, median=0.183 ms, max=17.962 ms, 99th percentile=2.693 ms
11:21:20 PM.325:  ┃ ┗gs_context(video->graphics): min=0.085 ms, median=0.182 ms, max=17.961 ms, 99th percentile=2.693 ms
11:21:20 PM.325:  ┃   ┣render_video: min=0.019 ms, median=0.136 ms, max=17.872 ms, 99th percentile=2.592 ms
11:21:20 PM.325:  ┃   ┃ ┗render_main_texture: min=0.017 ms, median=0.132 ms, max=17.864 ms, 99th percentile=2.586 ms
11:21:20 PM.325:  ┃   ┗gs_flush: min=0.023 ms, median=0.043 ms, max=10.544 ms, 99th percentile=0.18 ms
11:21:20 PM.326:  ┗render_displays: min=0.003 ms, median=0.647 ms, max=254.76 ms, 99th percentile=20.431 ms
11:21:20 PM.326: =================================================
11:21:20 PM.326: == Profiler Time Between Calls ==================
11:21:20 PM.326: obs_hotkey_thread(25 ms): min=25.176 ms, median=25.415 ms, max=418.581 ms, 65.5852% within ±2% of 25 ms (0% lower, 34.4148% higher)
11:21:20 PM.326: obs_graphics_thread(33.3333 ms): min=13.816 ms, median=33.333 ms, max=379.888 ms, 95.581% within ±2% of 33.333 ms (1.61462% lower, 2.80433% higher)
11:21:20 PM.326: =================================================
11:21:20 PM.359: Number of memory leaks: 1
