06:00:56 PM.181: CPU Name: Intel(R) Core(TM) i5-2540M CPU @ 2.60GHz
06:00:56 PM.181: CPU Speed: 2837.021MHz
06:00:56 PM.181: Physical Cores: 2, Logical Cores: 4
06:00:56 PM.181: Physical Memory: 7840MB Total, 1670MB Free
06:00:56 PM.181: Kernel Version: Linux 5.10.18-1-MANJARO
06:00:56 PM.181: Distribution: "Manjaro Linux" Unknown
06:00:56 PM.181: Session Type: tty
06:00:56 PM.182: Window System: X11.0, Vendor: The X.Org Foundation, Version: 1.20.10
06:00:56 PM.184: Portable mode: false
06:00:56 PM.328: OBS 26.1.2-1 (linux)
06:00:56 PM.328: ---------------------------------
06:00:56 PM.328: ---------------------------------
06:00:56 PM.328: audio settings reset:
06:00:56 PM.328: 	samples per sec: 48000
06:00:56 PM.328: 	speakers:        2
06:00:56 PM.331: ---------------------------------
06:00:56 PM.331: Initializing OpenGL...
06:00:56 PM.371: Loading up OpenGL on adapter Intel Open Source Technology Center Mesa DRI Intel(R) HD Graphics 3000 (SNB GT2)
06:00:56 PM.371: OpenGL loaded successfully, version 3.3 (Core Profile) Mesa 20.3.4, shading language 3.30
06:00:56 PM.396: ---------------------------------
06:00:56 PM.396: video settings reset:
06:00:56 PM.396: 	base resolution:   1600x900
06:00:56 PM.396: 	output resolution: 1280x720
06:00:56 PM.396: 	downscale filter:  Bicubic
06:00:56 PM.396: 	fps:               30/1
06:00:56 PM.396: 	format:            NV12
06:00:56 PM.396: 	YUV mode:          709/Partial
06:00:56 PM.397: NV12 texture support not available
06:00:56 PM.405: Audio monitoring device:
06:00:56 PM.405: 	name: Default
06:00:56 PM.405: 	id: default
06:00:56 PM.405: ---------------------------------
06:00:56 PM.409: Failed to load 'en-US' text for module: 'decklink-captions.so'
06:00:56 PM.414: Failed to load 'en-US' text for module: 'decklink-ouput-ui.so'
06:00:56 PM.584: A DeckLink iterator could not be created.  The DeckLink drivers may not be installed
06:00:56 PM.585: No blackmagic support
06:00:56 PM.604: v4l2loopback not installed, virtual camera disabled
06:00:56 PM.624: os_dlopen(libnvidia-encode.so.1->libnvidia-encode.so.1): libnvidia-encode.so.1: cannot open shared object file: No such file or directory
06:00:56 PM.624: 
06:00:56 PM.624: FFMPEG VAAPI supported
06:00:56 PM.660: VLC found, VLC video source enabled
06:00:56 PM.660: ---------------------------------
06:00:56 PM.660:   Loaded Modules:
06:00:56 PM.660:     vlc-video.so
06:00:56 PM.660:     text-freetype2.so
06:00:56 PM.660:     rtmp-services.so
06:00:56 PM.660:     obs-x264.so
06:00:56 PM.660:     obs-transitions.so
06:00:56 PM.660:     obs-outputs.so
06:00:56 PM.660:     obs-libfdk.so
06:00:56 PM.660:     obs-filters.so
06:00:56 PM.660:     obs-ffmpeg.so
06:00:56 PM.660:     linux-v4l2.so
06:00:56 PM.660:     linux-pulseaudio.so
06:00:56 PM.660:     linux-jack.so
06:00:56 PM.660:     linux-decklink.so
06:00:56 PM.660:     linux-capture.so
06:00:56 PM.660:     linux-alsa.so
06:00:56 PM.660:     image-source.so
06:00:56 PM.660:     frontend-tools.so
06:00:56 PM.660:     decklink-ouput-ui.so
06:00:56 PM.660:     decklink-captions.so
06:00:56 PM.660: ---------------------------------
06:00:56 PM.663: ==== Startup complete ===============================================
06:00:56 PM.673: All scene data cleared
06:00:56 PM.673: ------------------------------------------------
06:00:56 PM.689: pulse-input: Server name: 'pulseaudio 14.2'
06:00:56 PM.689: pulse-input: Audio format: s16le, 44100 Hz, 2 channels
06:00:56 PM.689: pulse-input: Started recording from 'alsa_output.pci-0000_00_1b.0.analog-stereo.monitor'
06:00:56 PM.689: [Loaded global audio device]: 'Desktop Audio'
06:00:56 PM.690: pulse-input: Server name: 'pulseaudio 14.2'
06:00:56 PM.690: pulse-input: Audio format: s16le, 32000 Hz, 2 channels
06:00:56 PM.690: pulse-input: Started recording from 'alsa_input.usb-046d_HD_Pro_Webcam_C920_721633EF-02.analog-stereo'
06:00:56 PM.690: [Loaded global audio device]: 'Mic/Aux'
06:00:56 PM.691: xshm-input: Geometry 1600x900 @ 0,0
06:00:56 PM.902: xcompcap: [window-capture: 'df'] update settings:
06:00:56 PM.902: 	title: Dwarf Fortress
06:00:56 PM.902: 	class: Dwarf_Fortress
06:00:56 PM.902: 	Bit depth: 24
06:00:56 PM.902: 	Found proper GLXFBConfig (in 24): yes
06:00:56 PM.902: 
06:00:56 PM.903: xshm-input: Geometry 1600x900 @ 0,0
06:00:56 PM.933: xcompcap: XCompositeNameWindowPixmap failed: BadMatch (invalid parameter attributes)
06:00:56 PM.937: xcompcap: XCompositeNameWindowPixmap failed: BadMatch (invalid parameter attributes)
06:00:56 PM.937: Switched to scene 'Coding'
06:00:56 PM.938: ------------------------------------------------
06:00:56 PM.938: Loaded scenes:
06:00:56 PM.938: - scene 'Dwarf fortress':
06:00:56 PM.938:     - source: 'df' (xcomposite_input)
06:00:56 PM.938: - scene 'Whole Screen':
06:00:56 PM.938:     - source: 'fullscreen' (xshm_input)
06:00:56 PM.938: - scene 'Coding':
06:00:56 PM.940:     - source: 'Background' (image_source)
06:00:56 PM.940:     - source: 'Screen' (xshm_input)
06:00:56 PM.940:     - source: 'Terminal' (xcomposite_input)
06:00:56 PM.940:     - source: 'Micro' (xcomposite_input)
06:00:56 PM.940: - scene 'Mountains':
06:00:56 PM.940:     - source: 'backdrop' (image_source)
06:00:56 PM.940: ------------------------------------------------
06:00:57 PM.025: [rtmp-services plugin] Successfully updated file 'services.json' (version 170)
06:00:57 PM.026: [rtmp-services plugin] Successfully updated package (version 170)
06:00:57 PM.511: adding 42 milliseconds of audio buffering, total audio buffering is now 42 milliseconds (source: Mic/Aux)
06:00:57 PM.511: 
06:01:02 PM.595: User switched to scene 'Dwarf fortress'
06:02:04 PM.747: xcompcap: [window-capture: 'df'] update settings:
06:02:04 PM.747: 	title: Dwarf Fortress
06:02:04 PM.747: 	class: Dwarf_Fortress
06:02:04 PM.747: 	Bit depth: 24
06:02:04 PM.747: 	Found proper GLXFBConfig (in 24): yes
06:02:04 PM.747: 
06:02:23 PM.009: xcompcap: [window-capture: 'df'] update settings:
06:02:23 PM.009: 	title: Dwarf Fortress
06:02:23 PM.009: 	class: Dwarf_Fortress
06:02:23 PM.009: 	Bit depth: 24
06:02:23 PM.009: 	Found proper GLXFBConfig (in 24): yes
06:02:23 PM.009: 
06:02:26 PM.890: ---------------------------------
06:02:26 PM.891: [x264 encoder: 'simple_h264_stream'] preset: veryfast
06:02:26 PM.893: [x264 encoder: 'simple_h264_stream'] settings:
06:02:26 PM.893: 	rate_control: CBR
06:02:26 PM.893: 	bitrate:      1500
06:02:26 PM.893: 	buffer size:  1500
06:02:26 PM.893: 	crf:          0
06:02:26 PM.893: 	fps_num:      30
06:02:26 PM.893: 	fps_den:      1
06:02:26 PM.893: 	width:        1280
06:02:26 PM.893: 	height:       720
06:02:26 PM.893: 	keyint:       60
06:02:26 PM.893: 
06:02:26 PM.893: [x264 encoder: 'simple_h264_stream'] custom settings: 
06:02:26 PM.893: 	scenecut = 0
06:02:26 PM.912: libfdk_aac encoder created
06:02:26 PM.912: libfdk_aac bitrate: 160, channels: 2
06:02:26 PM.912: [rtmp stream: 'simple_stream'] Connecting to RTMP URL rtmp://sjc05.contribute.live-video.net/app...
06:02:27 PM.489: [rtmp stream: 'simple_stream'] Connection to rtmp://sjc05.contribute.live-video.net/app successful
06:02:27 PM.512: ==== Streaming Start ===============================================
06:02:43 PM.653: xcompcap: [window-capture: 'df'] update settings:
06:02:43 PM.653: 	title: Dwarf Fortress
06:02:43 PM.653: 	class: Dwarf_Fortress
06:02:43 PM.653: 	Bit depth: 24
06:02:43 PM.653: 	Found proper GLXFBConfig (in 24): yes
06:02:43 PM.653: 
06:03:50 PM.873: xcompcap: [window-capture: 'df'] update settings:
06:03:50 PM.873: 	title: Dwarf Fortress
06:03:50 PM.873: 	class: Dwarf_Fortress
06:03:50 PM.873: 	Bit depth: 24
06:03:50 PM.873: 	Found proper GLXFBConfig (in 24): yes
06:03:50 PM.873: 
06:05:50 PM.804: xcompcap: [window-capture: 'df'] update settings:
06:05:50 PM.804: 	title: Dwarf Fortress
06:05:50 PM.804: 	class: Dwarf_Fortress
06:05:50 PM.804: 	Bit depth: 24
06:05:50 PM.804: 	Found proper GLXFBConfig (in 24): yes
06:05:50 PM.804: 
06:08:15 PM.198: xcompcap: [window-capture: 'df'] update settings:
06:08:15 PM.198: 	title: Dwarf Fortress
06:08:15 PM.198: 	class: Dwarf_Fortress
06:08:15 PM.198: 	Bit depth: 24
06:08:15 PM.198: 	Found proper GLXFBConfig (in 24): yes
06:08:15 PM.198: 
06:08:30 PM.288: xcompcap: [window-capture: 'df'] update settings:
06:08:30 PM.288: 	title: Dwarf Fortress
06:08:30 PM.288: 	class: Dwarf_Fortress
06:08:30 PM.288: 	Bit depth: 24
06:08:30 PM.288: 	Found proper GLXFBConfig (in 24): yes
06:08:30 PM.288: 
06:11:45 PM.345: xcompcap: [window-capture: 'df'] update settings:
06:11:45 PM.345: 	title: Dwarf Fortress
06:11:45 PM.345: 	class: Dwarf_Fortress
06:11:45 PM.345: 	Bit depth: 24
06:11:45 PM.345: 	Found proper GLXFBConfig (in 24): yes
06:11:45 PM.345: 
06:13:44 PM.539: xcompcap: [window-capture: 'df'] update settings:
06:13:44 PM.539: 	title: Dwarf Fortress
06:13:44 PM.539: 	class: Dwarf_Fortress
06:13:44 PM.539: 	Bit depth: 24
06:13:44 PM.539: 	Found proper GLXFBConfig (in 24): yes
06:13:44 PM.539: 
06:15:44 PM.282: xcompcap: [window-capture: 'df'] update settings:
06:15:44 PM.282: 	title: Dwarf Fortress
06:15:44 PM.282: 	class: Dwarf_Fortress
06:15:44 PM.282: 	Bit depth: 24
06:15:44 PM.282: 	Found proper GLXFBConfig (in 24): yes
06:15:44 PM.282: 
06:15:52 PM.921: [rtmp stream: 'simple_stream'] User stopped the stream
06:15:52 PM.921: Output 'simple_stream': stopping
06:15:52 PM.921: Output 'simple_stream': Total frames output: 24126
06:15:52 PM.921: Output 'simple_stream': Total drawn frames: 24172 (24180 attempted)
06:15:52 PM.921: Output 'simple_stream': Number of lagged frames due to rendering lag/stalls: 8 (0.0%)
06:15:52 PM.922: Video stopped, number of skipped frames due to encoding lag: 154/24162 (0.6%)
06:15:52 PM.928: ==== Streaming Stop ================================================
06:15:52 PM.941: libfdk_aac encoder destroyed
06:16:17 PM.201: xcompcap: [window-capture: 'df'] update settings:
06:16:17 PM.201: 	title: Dwarf Fortress
06:16:17 PM.201: 	class: Dwarf_Fortress
06:16:17 PM.201: 	Bit depth: 24
06:16:17 PM.201: 	Found proper GLXFBConfig (in 24): yes
06:16:17 PM.201: 
06:43:44 PM.810: ---------------------------------
06:43:44 PM.810: [x264 encoder: 'simple_h264_stream'] preset: veryfast
06:43:44 PM.810: [x264 encoder: 'simple_h264_stream'] settings:
06:43:44 PM.810: 	rate_control: CBR
06:43:44 PM.810: 	bitrate:      1500
06:43:44 PM.810: 	buffer size:  1500
06:43:44 PM.810: 	crf:          0
06:43:44 PM.810: 	fps_num:      30
06:43:44 PM.810: 	fps_den:      1
06:43:44 PM.810: 	width:        1280
06:43:44 PM.810: 	height:       720
06:43:44 PM.810: 	keyint:       60
06:43:44 PM.810: 
06:43:44 PM.810: [x264 encoder: 'simple_h264_stream'] custom settings: 
06:43:44 PM.810: 	scenecut = 0
06:43:44 PM.815: libfdk_aac encoder created
06:43:44 PM.815: libfdk_aac bitrate: 160, channels: 2
06:43:44 PM.815: [rtmp stream: 'simple_stream'] Connecting to RTMP URL rtmp://sjc05.contribute.live-video.net/app...
06:43:45 PM.536: [rtmp stream: 'simple_stream'] Connection to rtmp://sjc05.contribute.live-video.net/app successful
06:43:45 PM.539: ==== Streaming Start ===============================================
06:44:17 PM.511: xcompcap: [window-capture: 'df'] update settings:
06:44:17 PM.511: 	title: Dwarf Fortress
06:44:17 PM.511: 	class: Dwarf_Fortress
06:44:17 PM.511: 	Bit depth: 24
06:44:17 PM.511: 	Found proper GLXFBConfig (in 24): yes
06:44:17 PM.511: 
06:45:15 PM.663: xcompcap: [window-capture: 'df'] update settings:
06:45:15 PM.663: 	title: Dwarf Fortress
06:45:15 PM.663: 	class: Dwarf_Fortress
06:45:15 PM.663: 	Bit depth: 24
06:45:15 PM.663: 	Found proper GLXFBConfig (in 24): yes
06:45:15 PM.663: 
06:47:32 PM.635: xcompcap: [window-capture: 'df'] update settings:
06:47:32 PM.635: 	title: Dwarf Fortress
06:47:32 PM.635: 	class: Dwarf_Fortress
06:47:32 PM.635: 	Bit depth: 24
06:47:32 PM.635: 	Found proper GLXFBConfig (in 24): yes
06:47:32 PM.635: 
06:53:19 PM.933: [rtmp stream: 'simple_stream'] User stopped the stream
06:53:19 PM.934: Output 'simple_stream': stopping
06:53:19 PM.934: Output 'simple_stream': Total frames output: 17207
06:53:19 PM.934: Output 'simple_stream': Total drawn frames: 17251 (17253 attempted)
06:53:19 PM.934: Output 'simple_stream': Number of lagged frames due to rendering lag/stalls: 2 (0.0%)
06:53:19 PM.934: Video stopped, number of skipped frames due to encoding lag: 5/17231 (0.0%)
06:53:19 PM.936: ==== Streaming Stop ================================================
06:53:19 PM.954: libfdk_aac encoder destroyed
06:53:29 PM.452: xcompcap: [window-capture: 'df'] update settings:
06:53:29 PM.452: 	title: Dwarf Fortress
06:53:29 PM.452: 	class: Dwarf_Fortress
06:53:29 PM.452: 	Bit depth: 24
06:53:29 PM.452: 	Found proper GLXFBConfig (in 24): yes
06:53:29 PM.452: 
07:03:21 PM.365: ==== Shutting down ==================================================
07:03:21 PM.373: pulse-input: Stopped recording from 'alsa_output.pci-0000_00_1b.0.analog-stereo.monitor'
07:03:21 PM.373: pulse-input: Got 985302 packets with 165140297 frames
07:03:21 PM.373: pulse-input: Stopped recording from 'alsa_input.usb-046d_HD_Pro_Webcam_C920_721633EF-02.analog-stereo'
07:03:21 PM.373: pulse-input: Got 373823 packets with 119820287 frames
07:03:21 PM.374: All scene data cleared
07:03:21 PM.374: ------------------------------------------------
07:03:21 PM.456: [Scripting] Total detached callbacks: 0
07:03:21 PM.461: Freeing OBS context data
07:03:21 PM.489: == Profiler Results =============================
07:03:21 PM.490: run_program_init: 1032.51 ms
07:03:21 PM.490:  ┣OBSApp::AppInit: 12.504 ms
07:03:21 PM.490:  ┃ ┗OBSApp::InitLocale: 7.507 ms
07:03:21 PM.490:  ┗OBSApp::OBSInit: 893.388 ms
07:03:21 PM.490:    ┣obs_startup: 17.044 ms
07:03:21 PM.490:    ┗OBSBasic::OBSInit: 731.712 ms
07:03:21 PM.490:      ┣OBSBasic::InitBasicConfig: 0.11 ms
07:03:21 PM.490:      ┣OBSBasic::ResetAudio: 0.12 ms
07:03:21 PM.490:      ┣OBSBasic::ResetVideo: 76.519 ms
07:03:21 PM.490:      ┣OBSBasic::InitOBSCallbacks: 0.004 ms
07:03:21 PM.490:      ┣OBSBasic::InitHotkeys: 0.038 ms
07:03:21 PM.490:      ┣obs_load_all_modules: 254.911 ms
07:03:21 PM.490:      ┃ ┣obs_init_module(decklink-captions.so): 0.029 ms
07:03:21 PM.490:      ┃ ┣obs_init_module(decklink-ouput-ui.so): 0.896 ms
07:03:21 PM.490:      ┃ ┣obs_init_module(frontend-tools.so): 146.997 ms
07:03:21 PM.490:      ┃ ┣obs_init_module(image-source.so): 0.007 ms
07:03:21 PM.490:      ┃ ┣obs_init_module(linux-alsa.so): 0.007 ms
07:03:21 PM.490:      ┃ ┣obs_init_module(linux-capture.so): 0.678 ms
07:03:21 PM.490:      ┃ ┣obs_init_module(linux-decklink.so): 0.207 ms
07:03:21 PM.490:      ┃ ┣obs_init_module(linux-jack.so): 0.002 ms
07:03:21 PM.490:      ┃ ┣obs_init_module(linux-pulseaudio.so): 0.005 ms
07:03:21 PM.490:      ┃ ┣obs_init_module(linux-v4l2.so): 7.04 ms
07:03:21 PM.490:      ┃ ┣obs_init_module(obs-ffmpeg.so): 0.285 ms
07:03:21 PM.490:      ┃ ┃ ┗nvenc_check: 0.253 ms
07:03:21 PM.490:      ┃ ┣obs_init_module(obs-filters.so): 0.017 ms
07:03:21 PM.490:      ┃ ┣obs_init_module(obs-libfdk.so): 0.001 ms
07:03:21 PM.490:      ┃ ┣obs_init_module(obs-outputs.so): 0.002 ms
07:03:21 PM.490:      ┃ ┣obs_init_module(obs-transitions.so): 0.007 ms
07:03:21 PM.490:      ┃ ┣obs_init_module(obs-x264.so): 0.002 ms
07:03:21 PM.490:      ┃ ┣obs_init_module(rtmp-services.so): 1.911 ms
07:03:21 PM.490:      ┃ ┣obs_init_module(text-freetype2.so): 0.025 ms
07:03:21 PM.490:      ┃ ┗obs_init_module(vlc-video.so): 0.794 ms
07:03:21 PM.490:      ┣OBSBasic::ResetOutputs: 1.273 ms
07:03:21 PM.490:      ┣OBSBasic::CreateHotkeys: 0.221 ms
07:03:21 PM.490:      ┣OBSBasic::InitService: 3.31 ms
07:03:21 PM.490:      ┣OBSBasic::InitPrimitives: 0.211 ms
07:03:21 PM.490:      ┗OBSBasic::Load: 279.206 ms
07:03:21 PM.491: obs_hotkey_thread(25 ms): min=0.101 ms, median=0.537 ms, max=138.788 ms, 99th percentile=19.623 ms, 99.7382% below 25 ms
07:03:21 PM.491: audio_thread(Audio): min=0 ms, median=0.227 ms, max=11.912 ms, 99th percentile=1.607 ms
07:03:21 PM.491:  ┗receive_audio: min=0.002 ms, median=0.592 ms, max=10.34 ms, 99th percentile=1.495 ms, 0.371843 calls per parent call
07:03:21 PM.491:    ┣buffer_audio: min=0 ms, median=0.002 ms, max=0.347 ms, 99th percentile=0.005 ms
07:03:21 PM.491:    ┗do_encode: min=0.184 ms, median=0.585 ms, max=10.329 ms, 99th percentile=1.472 ms
07:03:21 PM.491:      ┗encode(simple_aac): min=0.179 ms, median=0.555 ms, max=10.312 ms, 99th percentile=1.323 ms
07:03:21 PM.491: obs_graphics_thread(33.3333 ms): min=0.125 ms, median=1.902 ms, max=233.083 ms, 99th percentile=21.199 ms, 99.9003% below 33.333 ms
07:03:21 PM.491:  ┣tick_sources: min=0 ms, median=0.425 ms, max=232.893 ms, 99th percentile=10.866 ms
07:03:21 PM.491:  ┣output_frame: min=0.097 ms, median=0.356 ms, max=29.405 ms, 99th percentile=3.444 ms
07:03:21 PM.491:  ┃ ┣gs_context(video->graphics): min=0.097 ms, median=0.344 ms, max=15.35 ms, 99th percentile=1.235 ms
07:03:21 PM.491:  ┃ ┃ ┣render_video: min=0.045 ms, median=0.27 ms, max=13.141 ms, 99th percentile=0.962 ms
07:03:21 PM.491:  ┃ ┃ ┃ ┣render_main_texture: min=0.04 ms, median=0.217 ms, max=13.136 ms, 99th percentile=0.553 ms
07:03:21 PM.491:  ┃ ┃ ┃ ┣render_output_texture: min=0.029 ms, median=0.067 ms, max=6.889 ms, 99th percentile=0.232 ms, 0.368404 calls per parent call
07:03:21 PM.491:  ┃ ┃ ┃ ┣render_convert_texture: min=0.034 ms, median=0.074 ms, max=6.917 ms, 99th percentile=0.245 ms, 0.368404 calls per parent call
07:03:21 PM.491:  ┃ ┃ ┃ ┗stage_output_texture: min=0.025 ms, median=0.051 ms, max=8.037 ms, 99th percentile=0.155 ms, 0.368404 calls per parent call
07:03:21 PM.491:  ┃ ┃ ┣gs_flush: min=0.021 ms, median=0.054 ms, max=8.033 ms, 99th percentile=0.196 ms
07:03:21 PM.491:  ┃ ┃ ┗download_frame: min=0 ms, median=0.009 ms, max=14.929 ms, 99th percentile=0.025 ms, 0.368404 calls per parent call
07:03:21 PM.491:  ┃ ┗output_video_data: min=0 ms, median=0.434 ms, max=28.421 ms, 99th percentile=4.043 ms, 0.368386 calls per parent call
07:03:21 PM.491:  ┗render_displays: min=0.004 ms, median=0.803 ms, max=67.265 ms, 99th percentile=15.609 ms
07:03:21 PM.491: video_thread(video): min=0.874 ms, median=1.73 ms, max=576.352 ms, 99th percentile=7.443 ms
07:03:21 PM.492:  ┗receive_video: min=0.872 ms, median=1.725 ms, max=366.49 ms, 99th percentile=8.729 ms
07:03:21 PM.492:    ┗do_encode: min=0.87 ms, median=1.723 ms, max=366.489 ms, 99th percentile=8.727 ms
07:03:21 PM.492:      ┗encode(simple_h264_stream): min=0.857 ms, median=1.693 ms, max=366.468 ms, 99th percentile=8.285 ms
07:03:21 PM.492: =================================================
07:03:21 PM.492: == Profiler Time Between Calls ==================
07:03:21 PM.492: obs_hotkey_thread(25 ms): min=25.141 ms, median=25.663 ms, max=163.864 ms, 44.2964% within ±2% of 25 ms (0% lower, 55.7036% higher)
07:03:21 PM.492: obs_graphics_thread(33.3333 ms): min=2.496 ms, median=33.333 ms, max=233.091 ms, 97.4469% within ±2% of 33.333 ms (1.27565% lower, 1.27743% higher)
07:03:21 PM.492: =================================================
07:03:21 PM.753: Number of memory leaks: 1
