04:35:50 PM.818: CPU Name: Intel(R) Core(TM) i5-2540M CPU @ 2.60GHz
04:35:50 PM.818: CPU Speed: 1010.784MHz
04:35:50 PM.819: Physical Cores: 2, Logical Cores: 4
04:35:50 PM.819: Physical Memory: 7840MB Total, 1688MB Free
04:35:50 PM.819: Kernel Version: Linux 5.10.23-1-MANJARO
04:35:50 PM.819: Distribution: "Manjaro Linux" Unknown
04:35:50 PM.819: Session Type: x11
04:35:50 PM.819: Window System: X11.0, Vendor: The X.Org Foundation, Version: 1.20.10
04:35:50 PM.822: Portable mode: false
04:35:51 PM.117: OBS 26.1.2-1 (linux)
04:35:51 PM.117: ---------------------------------
04:35:51 PM.118: ---------------------------------
04:35:51 PM.118: audio settings reset:
04:35:51 PM.118: 	samples per sec: 48000
04:35:51 PM.118: 	speakers:        2
04:35:51 PM.129: ---------------------------------
04:35:51 PM.129: Initializing OpenGL...
04:35:51 PM.167: Loading up OpenGL on adapter Intel Open Source Technology Center Mesa DRI Intel(R) HD Graphics 3000 (SNB GT2)
04:35:51 PM.167: OpenGL loaded successfully, version 3.3 (Core Profile) Mesa 20.3.4, shading language 3.30
04:35:51 PM.193: ---------------------------------
04:35:51 PM.193: video settings reset:
04:35:51 PM.193: 	base resolution:   1600x900
04:35:51 PM.193: 	output resolution: 1280x720
04:35:51 PM.193: 	downscale filter:  Bicubic
04:35:51 PM.193: 	fps:               30/1
04:35:51 PM.193: 	format:            NV12
04:35:51 PM.193: 	YUV mode:          709/Partial
04:35:51 PM.193: NV12 texture support not available
04:35:51 PM.202: Audio monitoring device:
04:35:51 PM.202: 	name: Default
04:35:51 PM.202: 	id: default
04:35:51 PM.202: ---------------------------------
04:35:51 PM.206: Failed to load 'en-US' text for module: 'decklink-captions.so'
04:35:51 PM.211: Failed to load 'en-US' text for module: 'decklink-ouput-ui.so'
04:35:51 PM.390: A DeckLink iterator could not be created.  The DeckLink drivers may not be installed
04:35:51 PM.390: No blackmagic support
04:35:51 PM.419: v4l2loopback not installed, virtual camera disabled
04:35:51 PM.484: os_dlopen(libnvidia-encode.so.1->libnvidia-encode.so.1): libnvidia-encode.so.1: cannot open shared object file: No such file or directory
04:35:51 PM.484: 
04:35:51 PM.484: FFMPEG VAAPI supported
04:35:51 PM.555: VLC found, VLC video source enabled
04:35:51 PM.556: ---------------------------------
04:35:51 PM.556:   Loaded Modules:
04:35:51 PM.556:     vlc-video.so
04:35:51 PM.556:     text-freetype2.so
04:35:51 PM.556:     rtmp-services.so
04:35:51 PM.556:     obs-x264.so
04:35:51 PM.556:     obs-transitions.so
04:35:51 PM.556:     obs-outputs.so
04:35:51 PM.556:     obs-libfdk.so
04:35:51 PM.556:     obs-filters.so
04:35:51 PM.556:     obs-ffmpeg.so
04:35:51 PM.556:     linux-v4l2.so
04:35:51 PM.556:     linux-pulseaudio.so
04:35:51 PM.556:     linux-jack.so
04:35:51 PM.556:     linux-decklink.so
04:35:51 PM.556:     linux-capture.so
04:35:51 PM.556:     linux-alsa.so
04:35:51 PM.556:     image-source.so
04:35:51 PM.556:     frontend-tools.so
04:35:51 PM.556:     decklink-ouput-ui.so
04:35:51 PM.556:     decklink-captions.so
04:35:51 PM.556: ---------------------------------
04:35:51 PM.559: ==== Startup complete ===============================================
04:35:51 PM.570: All scene data cleared
04:35:51 PM.570: ------------------------------------------------
04:35:51 PM.611: pulse-input: Server name: 'pulseaudio 14.2'
04:35:51 PM.611: pulse-input: Audio format: s16le, 44100 Hz, 2 channels
04:35:51 PM.612: pulse-input: Started recording from 'alsa_output.pci-0000_00_1b.0.analog-stereo.monitor'
04:35:51 PM.612: [Loaded global audio device]: 'Desktop Audio'
04:35:51 PM.612: pulse-input: Server name: 'pulseaudio 14.2'
04:35:51 PM.612: pulse-input: Audio format: s16le, 32000 Hz, 2 channels
04:35:51 PM.612: pulse-input: Started recording from 'alsa_input.usb-046d_HD_Pro_Webcam_C920_721633EF-02.analog-stereo'
04:35:51 PM.613: [Loaded global audio device]: 'Mic/Aux'
04:35:51 PM.613: xcompcap: Unable to query window list because window manager does not support extended window manager Hints
04:35:51 PM.614: xcompcap: Unable to query window list because window manager does not support extended window manager Hints
04:35:51 PM.663: xshm-input: Geometry 1600x900 @ 0,0
04:35:51 PM.674: xcompcap: Unable to query window list because window manager does not support extended window manager Hints
04:35:51 PM.855: xshm-input: Geometry 1600x900 @ 0,0
04:35:51 PM.861: Switched to scene 'Dwarf fortress'
04:35:51 PM.861: ------------------------------------------------
04:35:51 PM.861: Loaded scenes:
04:35:51 PM.861: - scene 'Dwarf fortress':
04:35:51 PM.861:     - source: 'df' (xcomposite_input)
04:35:51 PM.861: - scene 'Whole Screen':
04:35:51 PM.861:     - source: 'fullscreen' (xshm_input)
04:35:51 PM.861: - scene 'Coding':
04:35:51 PM.861:     - source: 'Background' (image_source)
04:35:51 PM.861:     - source: 'Screen' (xshm_input)
04:35:51 PM.861:     - source: 'Terminal' (xcomposite_input)
04:35:51 PM.861:     - source: 'Micro' (xcomposite_input)
04:35:51 PM.861: - scene 'Mountains':
04:35:51 PM.861:     - source: 'backdrop' (image_source)
04:35:51 PM.861: ------------------------------------------------
04:35:51 PM.912: [rtmp-services plugin] Successfully updated file 'services.json' (version 171)
04:35:51 PM.913: [rtmp-services plugin] Successfully updated package (version 171)
04:35:53 PM.213: adding 42 milliseconds of audio buffering, total audio buffering is now 42 milliseconds (source: Desktop Audio)
04:35:53 PM.213: 
04:35:53 PM.867: xcompcap: Unable to query window list because window manager does not support extended window manager Hints
04:35:55 PM.900: xcompcap: Unable to query window list because window manager does not support extended window manager Hints
04:35:57 PM.933: xcompcap: Unable to query window list because window manager does not support extended window manager Hints
04:35:59 PM.967: xcompcap: Unable to query window list because window manager does not support extended window manager Hints
04:36:01 PM.259: User switched to scene 'Coding'
04:36:03 PM.267: xcompcap: Unable to query window list because window manager does not support extended window manager Hints
04:36:03 PM.268: xcompcap: Unable to query window list because window manager does not support extended window manager Hints
04:36:05 PM.300: xcompcap: Unable to query window list because window manager does not support extended window manager Hints
04:36:05 PM.301: xcompcap: Unable to query window list because window manager does not support extended window manager Hints
04:36:07 PM.334: xcompcap: Unable to query window list because window manager does not support extended window manager Hints
04:36:07 PM.334: xcompcap: Unable to query window list because window manager does not support extended window manager Hints
04:36:09 PM.367: xcompcap: Unable to query window list because window manager does not support extended window manager Hints
04:36:09 PM.367: xcompcap: Unable to query window list because window manager does not support extended window manager Hints
04:36:11 PM.400: xcompcap: Unable to query window list because window manager does not support extended window manager Hints
04:36:11 PM.401: xcompcap: Unable to query window list because window manager does not support extended window manager Hints
04:36:13 PM.433: xcompcap: Unable to query window list because window manager does not support extended window manager Hints
04:36:13 PM.434: xcompcap: Unable to query window list because window manager does not support extended window manager Hints
04:36:15 PM.467: xcompcap: Unable to query window list because window manager does not support extended window manager Hints
04:36:15 PM.468: xcompcap: Unable to query window list because window manager does not support extended window manager Hints
04:36:17 PM.500: xcompcap: Unable to query window list because window manager does not support extended window manager Hints
04:36:17 PM.501: xcompcap: Unable to query window list because window manager does not support extended window manager Hints
04:36:19 PM.533: xcompcap: Unable to query window list because window manager does not support extended window manager Hints
04:36:19 PM.534: xcompcap: Unable to query window list because window manager does not support extended window manager Hints
04:36:21 PM.567: xcompcap: Unable to query window list because window manager does not support extended window manager Hints
04:36:21 PM.567: xcompcap: Unable to query window list because window manager does not support extended window manager Hints
04:36:23 PM.600: xcompcap: Unable to query window list because window manager does not support extended window manager Hints
04:36:23 PM.601: xcompcap: Unable to query window list because window manager does not support extended window manager Hints
04:36:25 PM.633: xcompcap: Unable to query window list because window manager does not support extended window manager Hints
04:36:25 PM.634: xcompcap: Unable to query window list because window manager does not support extended window manager Hints
04:36:27 PM.667: xcompcap: Unable to query window list because window manager does not support extended window manager Hints
04:36:27 PM.668: xcompcap: Unable to query window list because window manager does not support extended window manager Hints
04:36:29 PM.700: xcompcap: Unable to query window list because window manager does not support extended window manager Hints
04:36:29 PM.700: xcompcap: Unable to query window list because window manager does not support extended window manager Hints
04:36:31 PM.734: xcompcap: Unable to query window list because window manager does not support extended window manager Hints
04:36:31 PM.734: xcompcap: Unable to query window list because window manager does not support extended window manager Hints
04:36:33 PM.767: xcompcap: Unable to query window list because window manager does not support extended window manager Hints
04:37:48 PM.855: Last log entry repeated for 83 more lines
04:37:48 PM.855: Settings changed (general)
04:37:48 PM.855: ------------------------------------------------
04:37:49 PM.000: xcompcap: Unable to query window list because window manager does not support extended window manager Hints
04:37:49 PM.000: xcompcap: Unable to query window list because window manager does not support extended window manager Hints
04:37:51 PM.034: xcompcap: Unable to query window list because window manager does not support extended window manager Hints
04:37:51 PM.034: xcompcap: Unable to query window list because window manager does not support extended window manager Hints
04:37:53 PM.067: xcompcap: Unable to query window list because window manager does not support extended window manager Hints
04:37:53 PM.068: xcompcap: Unable to query window list because window manager does not support extended window manager Hints
04:37:55 PM.104: xcompcap: Unable to query window list because window manager does not support extended window manager Hints
04:37:55 PM.105: xcompcap: Unable to query window list because window manager does not support extended window manager Hints
04:40:32 PM.288: ---------------------------------
04:40:32 PM.288: [x264 encoder: 'simple_h264_stream'] preset: veryfast
04:40:32 PM.293: [x264 encoder: 'simple_h264_stream'] settings:
04:40:32 PM.293: 	rate_control: CBR
04:40:32 PM.293: 	bitrate:      1500
04:40:32 PM.293: 	buffer size:  1500
04:40:32 PM.293: 	crf:          0
04:40:32 PM.293: 	fps_num:      30
04:40:32 PM.293: 	fps_den:      1
04:40:32 PM.293: 	width:        1280
04:40:32 PM.293: 	height:       720
04:40:32 PM.293: 	keyint:       60
04:40:32 PM.293: 
04:40:32 PM.293: [x264 encoder: 'simple_h264_stream'] custom settings: 
04:40:32 PM.293: 	scenecut = 0
04:40:32 PM.318: libfdk_aac encoder created
04:40:32 PM.318: libfdk_aac bitrate: 160, channels: 2
04:40:32 PM.318: [rtmp stream: 'simple_stream'] Connecting to RTMP URL rtmp://sjc05.contribute.live-video.net/app...
04:40:33 PM.042: [rtmp stream: 'simple_stream'] Connection to rtmp://sjc05.contribute.live-video.net/app successful
04:40:33 PM.044: ==== Streaming Start ===============================================
04:40:59 PM.442: xcompcap: Unable to query window list because window manager does not support extended window manager Hints
04:40:59 PM.445: xcompcap: Unable to query window list because window manager does not support extended window manager Hints
04:41:01 PM.736: xcompcap: Unable to query window list because window manager does not support extended window manager Hints
04:41:01 PM.771: xcompcap: Unable to query window list because window manager does not support extended window manager Hints
04:41:02 PM.503: xcompcap: Unable to query window list because window manager does not support extended window manager Hints
04:41:04 PM.537: xcompcap: Unable to query window list because window manager does not support extended window manager Hints
04:41:06 PM.570: xcompcap: Unable to query window list because window manager does not support extended window manager Hints
04:41:07 PM.704: xcompcap: Unable to query window list because window manager does not support extended window manager Hints
04:41:07 PM.704: xcompcap: Unable to query window list because window manager does not support extended window manager Hints
04:42:52 PM.840: [rtmp stream: 'simple_stream'] User stopped the stream
04:42:52 PM.840: Output 'simple_stream': stopping
04:42:52 PM.841: Output 'simple_stream': Total frames output: 4171
04:42:52 PM.841: Output 'simple_stream': Total drawn frames: 4216
04:42:52 PM.842: ==== Streaming Stop ================================================
04:42:52 PM.863: libfdk_aac encoder destroyed
05:17:16 PM.900: ---------------------------------
05:17:16 PM.900: [x264 encoder: 'simple_h264_stream'] preset: veryfast
05:17:16 PM.900: [x264 encoder: 'simple_h264_stream'] settings:
05:17:16 PM.900: 	rate_control: CBR
05:17:16 PM.900: 	bitrate:      1500
05:17:16 PM.900: 	buffer size:  1500
05:17:16 PM.900: 	crf:          0
05:17:16 PM.900: 	fps_num:      30
05:17:16 PM.900: 	fps_den:      1
05:17:16 PM.900: 	width:        1280
05:17:16 PM.900: 	height:       720
05:17:16 PM.900: 	keyint:       60
05:17:16 PM.900: 
05:17:16 PM.900: [x264 encoder: 'simple_h264_stream'] custom settings: 
05:17:16 PM.900: 	scenecut = 0
05:17:16 PM.902: libfdk_aac encoder created
05:17:16 PM.902: libfdk_aac bitrate: 160, channels: 2
05:17:16 PM.902: [rtmp stream: 'simple_stream'] Connecting to RTMP URL rtmp://sjc05.contribute.live-video.net/app...
05:17:17 PM.545: [rtmp stream: 'simple_stream'] Connection to rtmp://sjc05.contribute.live-video.net/app successful
05:17:17 PM.546: ==== Streaming Start ===============================================
05:20:34 PM.905: source 'Mic/Aux' enabled push-to-mute
05:20:34 PM.906: Settings changed (audio)
05:20:34 PM.906: ------------------------------------------------
05:37:44 PM.427: [rtmp stream: 'simple_stream'] User stopped the stream
05:37:44 PM.427: Output 'simple_stream': stopping
05:37:44 PM.427: Output 'simple_stream': Total frames output: 36785
05:37:44 PM.427: Output 'simple_stream': Total drawn frames: 36825 (36826 attempted)
05:37:44 PM.427: Output 'simple_stream': Number of lagged frames due to rendering lag/stalls: 1 (0.0%)
05:37:44 PM.429: ==== Streaming Stop ================================================
05:37:44 PM.449: libfdk_aac encoder destroyed
05:42:33 PM.257: Failed to fetch parent window geometry!
05:42:33 PM.257: Failed to fetch parent window geometry!
05:42:33 PM.258: Failed to fetch parent window geometry!
05:42:33 PM.258: Failed to fetch parent window geometry!
