"human_johnxkevin"	"johnxkevin"	14	"6/12/2017 / 0249 / I became a father to a beautiful baby girl."
"human_jaxton"	"Jaxton the Bastard"	8	"There was a flash, a terrible noise -- and then, nothing."
"human_ian"	"Dr. Ian Malcolm"	14	"Life breaks free, it expands to new territories and crashes through barriers, painfully, maybe even dangerously, but, uhﾅ well, there it is."
"human_dean"	"Dean Lee"	13	"...it's been hard. You know I never thought it would be easy, I knew it would be challenging. I didn't know I would have to do it on my own."
"human_andrew"	"Andrew Krause"	4	"Maybe it'll all be fine in the morning."
"human_alexander"	"Alexander Senger"	20	"power out... getting cold... need to trust this pod. SOS"
"human_rex"	"Rex Rosnald Stellastny"	12	"As a postal carrier, he longed to care for a baby dragon. He knew the odds against it, but he bet on optimism."
"human_byron"	"Byron Orrock"	12	"Do you ever feel like the last hope for humanity and ask yourself 'whose idea was this?'"
"human_marjoram"	"Marjoram Morick"	8	"Evolution did an incredible job with celery."
"human_alaa"	"Alaa Johanson"	17	"TO: A. Johanson RE: Elemental Analysis Order #456 / Dr. Johanson, You sample from [REDACTED] was damaged in transport, please resend to-[ERROR: FILE CORRUPTED]"
"human_tob"	"Tobp"	9	"the astiel t's te tnily tvi thUdee tk iX a thin. x on k ory of the only life I US, a cphl a the ofoor o Iu'soifBy axrtimn the only life r on"
"human_slati"	"Slatibartfast"	5	"He / loved / fjords."
"human_regina"	"Regina Blackwater"	32	"Yes is a world / & in this world of / yes live / (skillfully curled) / all worlds. I've thought about those words often, about all the worlds that live so skillfully curled inside others. Worlds of biology, chemistry, physics. And curled within the world of all moving bodies, a world of intricate, beautiful circuitry."
"human_john_malkovich"	"John Malkovich"	13	"Faces -- the faces are still there. Every day, more of them. All watching with the same eyes and same knowing smile."
"human_collin"	"Collin Dekker"	35	"Three months since I woke alone in this strange land. My hope of rescue fades with my sole reminder of home: a photo of my dear wife Jeni."
"human_mahzel"	"Mahzel Erihinwel"	17	"Exploration log hgrt2017 -- Our live specimen coming from the acid pool escaped. Successful genetics manipulations gave it great intelligence... It's looking for...."
			
"nemesis_wooorly"	"Wooorly"	19	"Oh moonshone maiden, Conrad killer, daughter of war / your everlasting life, held in rock / My last words to you: told you so."
"nemesis_quail"	"Quail"	7	"We're all made up of stardust, but I feel like I'm a long way from home."
"nemesis_crawlball"	"Crawlball"	18	"These blobs seem made for crawling. That's about all they do. Be vigilant or one of these days they're gonna crawl all over you. - Dr. Glubs"
"nemesis_anti"	"Antikytheron"	12	"I had hoped to spin my own children some day, as my weavers spun me."
"nemesis_orion"	"Orion"	13	"As the hunter stalks, Animals dream their dreams, Circle of life turns."
			
"human_everett"	"Everett Engkanto"	9	"I wish I could tell you that I remember life before this, but I don't. And if I had to gather, I don't think I wanted to. But I'm here now"
"human_shadow"	"Shadow651"	6	"Brilliant minds create the weapons that dumb minds use to destroy the world"
"human_hado"	"Hado the Excellent"	8	"Hado the Excellent seeks adventure in a dark and painful world, believing that only extraordinary experience can bring his life meaning."
"human_cargo"	"Cargo #2331"	5	"This love will be defended at all costs, do not **** with it."
"human_geek"	"Geek"	9	"...so much still to discover. I suspect we will need to radically change the ways we process information, and even our concept of whatﾅ"
"human_kate"	"kateleitermann"	12	"To whomever awakens me in the near or far future. I'm an ordinary 21st century woman, who just wanted the chance to keep living. Please have new kidneys ready."
"human_roseus"	"Roseus Bow"	3	"...still pressing on, caught in the wind like..."
"human_clive1"	"Clive Wearing"	13	"(strikeout text = 9:06 AM: Now I am perfectly, overwhelmingly awake.) 9:34 AM: Now I am superlatively, actually awake."
			
"nemesis_treeb"	"Treeb Ooblong-Troob"	10	"Blue. Water? Hydrogen. Nitrogen. Cold, dead, life."
"nemesis_pokit"	"Pokit8stiky8"	11	"A free lance librarian who just wants world peace, but is continually discriminated against because it's an alien. Finally gave up, turned to evil."
"nemesis_victoria"	"Victoria Wright"	10	"Basically, she became overconfident and cocky from near-death experiences and foolishly tackled an extremely difficult enemy, promptly meeting her end."
"nemesis_dremble"	"Dremble Hi Hi Hi"	2	"The singer heard a song that didn't need a singer"
"nemesis_orionnoir1"	"Orionnoir"	7	"From stars we fell, dust to dust. Never more, ever more once again."
			
"human"	"Tucker"		"__ _ o'')}____// `_/ ) (_(_/-(_/"
"human"	"Baby Grill"		
"human"	"tara"		
"human"	"Oblio"		
"human"	"Scott Reichelt"		
"human"	"Shimmerbug"		
"human"	"Nadreck"		
"human"	"Charles Emrich"		
"human"	"Michael Childers"		
"human"	"Tryanything1ce"		
"human"	"Zero"		
"human"	"Clops"		
"human"	"Vincenzo Caravella"		
"human"	"Morbidslug Jordalew"		
"human"	"Kimo Alapio"		
"human"	"Scott Lowrie"		
"human"	"Spiffy McSpiffyperson"		
"human"	"Valentina Mann"		
"human"	"Louise O'Brian"		
"human"	"Zemerson Black"		
"human"	"Lacey Van Nortwick"		
"human"	"Calmas Kysten"		
"human"	"dsal"		
"human"	"Tysam"		
"human"	"Athena"		
"human"	"Izabel Rose"		
"human"	"Jim Bob Jr III"		
"human"	"Ellie"		
"human"	"Tansy Jane"		
"human"	"Aaeriele"		
"human"	"FrayFray"		
"human"	"Ian Bone"		
"human"	"Satchel Baggington"		
"human"	"Yak"		
"human"	"Shama Rama"		
"human"	"Cedrik Donnell"		
"human"	"Reverend Harold"		
"human"	"Epi"		
"human"	"Eris Esoteric"		
"human"	"Deragon Whipwarf"		
"human"	"Abraham Sapien"		
"human"	"Lt. Randolph"		
"human"	"David W. Frank"		
"human"	"Scylld"		
"human"	"Sarom M'abi"		
"human"	"Merritt Sonata"		
"human"	"Tamien"		
"human"	"mafefa"		
"human"	"Tavi"		"1...2...3...4...Where am I again? The days grow longer and my memory grows shorter, but I know I was going somewhere..."
"human"	"Eve Marder"		
"human"	"Elric Goldflair"		"Diary Entry Who Cares - We're all dead here, so why do I persist? Hope is a bitch."
"human"	"Tamien"		
"human"	"Merritt Sonata"		
"human"	"mafefa"		
			
			
			
			
"nemesis"	"Blackfyre"		
"nemesis"	"Rorge"		
"nemesis"	"Q'trippa"		
"nemesis"	"Arui Laranoch"		
"nemesis"	"Sukmidong"		
"nemesis"	"Grubulon"		
"nemesis"	"Zeebot"		
"nemesis"	"Quagma Fourstarr"		
"nemesis"	"Octadecagon"		
"nemesis"	"Kalikanakas"		
"nemesis"	"Huurnax"		
"nemesis"	"Boojum"		
"nemesis"	"Aewin"		
"nemesis"	"Tetrahemihexacron"		
"nemesis"	"Worldender"		
"nemesis"	"Peri"		
"nemesis"	"Dymalion A"		
"nemesis"	"Pyrois Aethon"		
"nemesis"	"ShaneStained"		
"nemesis"	"Sixty-three asps"		
"nemesis"	"Seiromem"		
"nemesis"	"XiLong"		
"nemesis"	"tardigradeA"		
"nemesis"	"Jack Huang"		
"nemesis"	"bbktsk"		
"nemesis"	"Amphialus"		
"nemesis"	"Urnud"		
"nemesis"	"Xenthro"		
"nemesis"	"KEO"		
"nemesis"	"Birthday Majesty"		
"nemesis"	"kerasus unetus"		
"nemesis"	"Punky"		
"nemesis"	"Filimantisa"		"Filimantisa awoke from a dream to find themselves deep within the watery reaches of your screen... looking up towards the light, they stretched their attached bits and tried to work out how to creep forward."
"nemesis"	"Xixyfreks"		
