astroboy_robotswereinvented	Astro Boy	17	Robots were invented to serve mankind, but I had created one with a heart and mind. One that could rebel against humans. Totally unpredictable! I became convinced that despite my good intentions, I had created a monster.
astroboy_themostpowerful	Astro Boy	14	The most powerful robots in the world are built here, and they're all my creation. I would say that makes me the king of robots, wouldn't you?
			
bible_allgotothesame	Ecclesiastes 3:20	9	All go to the same place; all are of the dust, and all return to dust again.
bible_beholdnowbehemoth	Job 40:15-18	26	Behold now, Behemoth, which I made as well as you; He eats grass like an ox. / Behold now, his strength in his loins And his power in the muscles of his belly. / He bends his tail like a cedar; The sinews of his thighs are knit together. / His bones are tubes of bronze; His limbs are like bars of iron.
bible_beholdthisisthejoy	Job 8:19	7	Behold, this is the joy of His way; And out of the dust others will spring.
bible_bythesweat	Genesis 3:19	14	By the sweat of your face You will eat bread, Till you return to the ground, Because from it you were taken; For you are dust, And to dust you shall return.
bible_forthefateof	Ecclesiastes 3:19	15	For the fate of the sons of men and the fate of beasts is the same. / As one dies so dies the other; indeed, they all have the same breath and there is no advantage for man over beast, for all is vanity.
bible_hehascastme	Job 30:19	7	He has cast me into the mire, And I have become like dust and ashes.
bible_mydaysareswifter	Job 7:6	6	My days are swifter than a weaver's shuttle, And come to an end without hope.
bible_noweveryswarming	Leviticus 11:41	11	Now every swarming thing that swarms on the earth is detestable, not to be eaten.
bible_remembernow	Job 10:9-11	21	Remember now, that You have made me as clay; And would You turn me into dust again? / Didn't you pour me out like milk and let me congeal like cheese? / You covered me with skin and flesh, weaving me together with bones and sinews.
bible_thenthedust	Ecclesiastes 12:7	9	Then the dust will return to the earth as it was, and the spirit will return to God who gave it.
bible_youtakeaway	Psalm 104:29	6	You take away their spirit, they expire. And return to their dust.
			
frankenstein_accursedcreator	Frankenstein	9	Accursed creator! Why did you form a monster so hideous that even you turned from me in disgust?
frankenstein_ibeheldthewretch	Frankenstein	22	I beheld the wretch -- the miserable monster whom I had created. He held up the curtain of the bed; and his eyes, if eyes they may be called, were fixed on me. His jaws opened, and he muttered some inarticulate sounds, while a grin wrinkled his cheeks.
frankenstein_thereissomething	Frankenstein	28	There is something at work in my soul which I do not understand. I am practically industrious -- painstaking, a workman to execute with perseverance and labour -- but besides this there is a love for the marvellous, a belief in the marvellous, intertwined in all my projects, which hurries me out of the common pathways of men, even to the wild sea and unvisited regions I am about to explore.
frankenstein_iwillpioneer	Frankenstein	9	I will pioneer a new way, explore unknown powers, and unfold to the world the deepest mysteries of creation.
frankenstein_manicried	Frankenstein	13	"""Man,"" I cried, ""how ignorant art thou in thy pride of wisdom! Cease; you know not what it is you say."""
frankenstein_noonecanconceive	Frankenstein	18	No one can conceive the variety of feelings which bore me onwards, like a hurricane, in the first enthusiasm of success. Life and death appeared to me ideal bounds, which I should first break through, and pour a torrent of light into our dark world.
frankenstein_whenceioftenask	Frankenstein	17	Whence, I often asked myself, did the principle of life proceed? It was a bold question, and one which has ever been considered as a mystery; yet with how many things are we upon the brink of becoming acquainted?
frankenstein_ifeelmyheart	Frankenstein	15	I feel my heart glow with an enthusiasm which elevates me to heaven, for nothing contributes so much to tranquilize the mind as a steady purpose -- a point on which the soul may fix its intellectual eye.
			
galetea_andfinallyhersubstance	Galetea	14	And finally her substance has fled entirely, and she is only a shadow, passing around you in a cool whisper.
			
rur_hewanted	R.U.R.	18	He wanted, in some scientific way, to take the place of God. He was a convinced materialist, and that's why he wanted to do everything simply to prove that there was no God needed.
rur_ithinkifyou	R.U.R.	9	I think, if you were able to wake up for only a moment, you would kill me for making you.
rur_justthink	R.U.R.	26	Just think: he wrote these words about a blob of some kind of coloidal jelly that not even a dog would eat. Imagine him sitting with a test tube and thinking about how it could grow out into an entire tree of life made of all the animals starting with a tiny coil of life and ending with . . . ending with man himself.
rur_missgloryrobotsarenot	R.U.R.	17	Miss Glory, robots are not people. They are mechanically much better than we are, they have an amazing ability to understand things, but they don't have a soul. Young Rossum created something much more sophisticated than Nature ever did - technically at least!
rur_naturehasfound	R.U.R.	11	Nature has found only one way of organising living matter. There is however another way which is simpler, easier to mould, and quicker to produce than Nature ever stumbled across.
rur_usingthisslime	R.U.R.	25	Using this slime he could make whatever he wanted. He could have made a Medusa with the brain of Socrates or a worm fifty meters long. But old Rossum didn't have a trace of humour about him, so he got it into his head to make a normal vertebrate, such as human being. And so thatﾒs what he started doing.
