<?xml version="1.0" encoding="UTF-8" standalone="no"?>
<svg
   xmlns:dc="http://purl.org/dc/elements/1.1/"
   xmlns:cc="http://creativecommons.org/ns#"
   xmlns:rdf="http://www.w3.org/1999/02/22-rdf-syntax-ns#"
   xmlns:svg="http://www.w3.org/2000/svg"
   xmlns="http://www.w3.org/2000/svg"
   xmlns:sodipodi="http://sodipodi.sourceforge.net/DTD/sodipodi-0.dtd"
   xmlns:inkscape="http://www.inkscape.org/namespaces/inkscape"
   sodipodi:docname="cell_organ_harpoon.svg"
   inkscape:version="1.0 (4035a4fb49, 2020-05-01)"
   version="1.1"
   id="svg6845"
   viewBox="0 0 100 100"
   height="100"
   width="100">
  <defs
     id="defs6847" />
  <sodipodi:namedview
     inkscape:snap-global="false"
     inkscape:document-rotation="0"
     units="px"
     inkscape:window-maximized="1"
     inkscape:window-y="-8"
     inkscape:window-x="-8"
     inkscape:window-height="1057"
     inkscape:window-width="1920"
     showgrid="false"
     inkscape:current-layer="layer1"
     inkscape:document-units="px"
     inkscape:cy="277.75068"
     inkscape:cx="-497.64165"
     inkscape:zoom="0.52995895"
     inkscape:pageshadow="2"
     inkscape:pageopacity="0.0"
     borderopacity="1.0"
     bordercolor="#666666"
     pagecolor="#ffffff"
     id="base" />
  <metadata
     id="metadata6850">
    <rdf:RDF>
      <cc:Work
         rdf:about="">
        <dc:format>image/svg+xml</dc:format>
        <dc:type
           rdf:resource="http://purl.org/dc/dcmitype/StillImage" />
        <dc:title />
      </cc:Work>
    </rdf:RDF>
  </metadata>
  <g
     transform="translate(0,-952.36214)"
     style="display:inline"
     inkscape:label="base"
     id="layer3"
     inkscape:groupmode="layer">
    <path
       sodipodi:nodetypes="ccccccccccccccccc"
       inkscape:connector-curvature="0"
       id="path5062-4"
       d="m 127.5003,1002.3621 -6.09037,30.1667 -16.60895,24.6343 -24.634369,16.609 L 50,1079.8625 l -30.166611,-6.0904 -24.6343727,-16.609 -16.6089523,-24.6343 -6.09036,-30.1667 6.090361,-30.16661 L -4.8009791,947.56112 19.833394,930.95218 50,924.86182 l 30.166607,6.09036 24.634373,16.60894 16.60895,24.63437 z"
       style="display:inline;opacity:1;fill:#1b1200;fill-opacity:1;stroke:none;stroke-width:4.60599995;stroke-linecap:round;stroke-linejoin:round;stroke-miterlimit:4;stroke-dasharray:none;stroke-dashoffset:0;stroke-opacity:1" />
  </g>
  <g
     transform="translate(0,-952.36214)"
     style="display:inline"
     id="layer1"
     inkscape:groupmode="layer"
     inkscape:label="design">
    <path
       sodipodi:nodetypes="ccccccccccccccccc"
       inkscape:connector-curvature="0"
       id="circle8577"
       d="m 118.06463,1002.3621 -5.34882,26.4937 -14.586806,21.6352 -21.635153,14.5869 L 50,1070.4268 23.506148,1065.0779 1.8709994,1050.491 -12.715806,1028.8558 -18.064632,1002.3621 -12.715749,975.86828 1.8710668,954.23315 23.506189,939.64636 50,934.2975 l 26.493811,5.34886 21.635118,14.58679 14.586811,21.63513 z"
       style="display:inline;opacity:1;fill:#ad8585;fill-opacity:1;stroke:none;stroke-width:4.60599995;stroke-linecap:round;stroke-linejoin:round;stroke-miterlimit:4;stroke-dasharray:none;stroke-dashoffset:0;stroke-opacity:1" />
    <path
       sodipodi:nodetypes="ccccccccccccccc"
       id="path869"
       d="m 50.006308,944.776 -14.22557,15.20181 -22.945433,63.05299 0.733358,19.9837 16.614897,-9.8113 -7.813023,15.5973 6.034039,5.5384 21.601732,5.1965 21.600155,-5.1965 6.037194,-5.54 -7.82564,-15.6004 16.614897,9.8207 0.731781,-19.9884 -22.934393,-63.05299 z"
       style="color:#000000;font-style:normal;font-variant:normal;font-weight:normal;font-stretch:normal;font-size:medium;line-height:normal;font-family:sans-serif;font-variant-ligatures:normal;font-variant-position:normal;font-variant-caps:normal;font-variant-numeric:normal;font-variant-alternates:normal;font-variant-east-asian:normal;font-feature-settings:normal;font-variation-settings:normal;text-indent:0;text-align:start;text-decoration:none;text-decoration-line:none;text-decoration-style:solid;text-decoration-color:#000000;letter-spacing:normal;word-spacing:normal;text-transform:none;writing-mode:lr-tb;direction:ltr;text-orientation:mixed;dominant-baseline:auto;baseline-shift:baseline;text-anchor:start;white-space:normal;shape-padding:0;shape-margin:0;inline-size:0;clip-rule:nonzero;display:inline;overflow:visible;visibility:visible;opacity:1;isolation:auto;mix-blend-mode:normal;color-interpolation:sRGB;color-interpolation-filters:linearRGB;solid-color:#000000;solid-opacity:1;vector-effect:none;fill:#3f0a0a;fill-opacity:1;fill-rule:nonzero;stroke:none;stroke-width:9.48796;stroke-linecap:butt;stroke-linejoin:miter;stroke-miterlimit:4;stroke-dasharray:none;stroke-dashoffset:0;stroke-opacity:1;color-rendering:auto;image-rendering:auto;shape-rendering:auto;text-rendering:auto;enable-background:accumulate;stop-color:#000000;stop-opacity:1" />
    <path
       sodipodi:nodetypes="ccccccccccccccccc"
       inkscape:connector-curvature="0"
       style="color:#000000;clip-rule:nonzero;display:inline;overflow:visible;visibility:visible;isolation:auto;mix-blend-mode:normal;color-interpolation:sRGB;color-interpolation-filters:linearRGB;solid-color:#000000;solid-opacity:1;fill:#e74c4c;fill-opacity:1;fill-rule:nonzero;stroke:none;stroke-width:116.092;stroke-linecap:butt;stroke-linejoin:round;stroke-miterlimit:4;stroke-dasharray:none;stroke-dashoffset:0;stroke-opacity:1;color-rendering:auto;image-rendering:auto;shape-rendering:auto;text-rendering:auto;enable-background:accumulate"
       d="m 20.203472,1032.5414 18.604917,-10.8397 -2.399069,12.3443 -4.983906,11.1104 8.831211,5.6462 9.748683,1.9203 9.747925,-1.9203 8.83197,-5.6462 -4.994523,-11.1104 -2.383903,-12.3447 18.589751,10.8401 -1.875883,-10.7791 -19.260793,-57.94016 -8.654544,-10.12025 -8.655301,10.12025 -19.271409,57.94016 z"
       id="rect4141-3" />
  </g>
</svg>
