<?xml version="1.0" encoding="UTF-8" standalone="no"?>
<!-- Created with Inkscape (http://www.inkscape.org/) -->

<svg
   xmlns:dc="http://purl.org/dc/elements/1.1/"
   xmlns:cc="http://creativecommons.org/ns#"
   xmlns:rdf="http://www.w3.org/1999/02/22-rdf-syntax-ns#"
   xmlns:svg="http://www.w3.org/2000/svg"
   xmlns="http://www.w3.org/2000/svg"
   xmlns:sodipodi="http://sodipodi.sourceforge.net/DTD/sodipodi-0.dtd"
   xmlns:inkscape="http://www.inkscape.org/namespaces/inkscape"
   width="100"
   height="100"
   viewBox="0 0 100 100"
   id="svg6845"
   version="1.1"
   inkscape:version="0.91 r13725"
   sodipodi:docname="cell_pacemaker_fast.svg">
  <defs
     id="defs6847" />
  <sodipodi:namedview
     id="base"
     pagecolor="#ffffff"
     bordercolor="#666666"
     borderopacity="1.0"
     inkscape:pageopacity="0.0"
     inkscape:pageshadow="2"
     inkscape:zoom="1.979899"
     inkscape:cx="-46.513942"
     inkscape:cy="55.608349"
     inkscape:document-units="px"
     inkscape:current-layer="layer1"
     showgrid="false"
     inkscape:window-width="1366"
     inkscape:window-height="607"
     inkscape:window-x="8"
     inkscape:window-y="39"
     inkscape:window-maximized="0"
     units="px" />
  <metadata
     id="metadata6850">
    <rdf:RDF>
      <cc:Work
         rdf:about="">
        <dc:format>image/svg+xml</dc:format>
        <dc:type
           rdf:resource="http://purl.org/dc/dcmitype/StillImage" />
        <dc:title />
      </cc:Work>
    </rdf:RDF>
  </metadata>
  <g
     inkscape:groupmode="layer"
     id="layer3"
     inkscape:label="base"
     style="display:inline"
     transform="translate(0,-952.36214)">
    <path
       style="display:inline;opacity:1;fill:#855e00;fill-opacity:1;stroke:none;stroke-width:4.60599995;stroke-linecap:round;stroke-linejoin:round;stroke-miterlimit:4;stroke-dasharray:none;stroke-dashoffset:0;stroke-opacity:1"
       d="m 100,1002.3621 -3.929248,19.4623 -10.715413,15.893 -15.893083,10.7155 L 50,1052.3621 30.537744,1048.4329 14.644661,1037.7174 3.9292479,1021.8244 0,1002.3621 3.929249,982.89985 14.644664,967.00677 30.537747,956.29137 50,952.36212 l 19.462253,3.92925 15.893083,10.7154 10.715415,15.89308 z"
       id="path5062-4"
       inkscape:connector-curvature="0"
       sodipodi:nodetypes="ccccccccccccccccc" />
  </g>
  <g
     inkscape:label="design"
     inkscape:groupmode="layer"
     id="layer1"
     style="display:inline"
     transform="translate(0,-952.36214)">
    <path
       style="display:inline;opacity:1;fill:#7ea81e;fill-opacity:1;stroke:none;stroke-width:4.60599995;stroke-linecap:round;stroke-linejoin:round;stroke-miterlimit:4;stroke-dasharray:none;stroke-dashoffset:0;stroke-opacity:1"
       d="m 90.715736,1002.3621 -3.199626,15.8484 -8.725714,12.942 -12.941979,8.7257 L 50,1043.0779 l -15.848418,-3.1997 -12.941978,-8.7257 -8.725714,-12.942 -3.1996264,-15.8484 3.1996604,-15.84839 8.72572,-12.94197 12.941963,-8.72571 L 50,961.64639 l 15.848393,3.19964 12.941963,8.72571 8.725719,12.94197 z"
       id="circle8577"
       inkscape:connector-curvature="0"
       sodipodi:nodetypes="ccccccccccccccccc" />
    <path
       style="display:inline;opacity:1;fill:#91dd1c;fill-opacity:1;stroke:none;stroke-width:4.60599995;stroke-linecap:round;stroke-linejoin:round;stroke-miterlimit:4;stroke-dasharray:none;stroke-dashoffset:0;stroke-opacity:1"
       d="m 83.139591,1002.3621 -2.604271,12.8994 -7.102087,10.5338 -10.533806,7.1021 L 50,1035.5017 l -12.899427,-2.6043 -10.533806,-7.1021 -7.102087,-10.5338 -2.604271,-12.8994 2.604277,-12.89942 7.102089,-10.5338 L 37.10058,971.8268 50,969.22253 l 12.89942,2.60427 10.533805,7.10208 7.102089,10.5338 z"
       id="circle4183"
       inkscape:connector-curvature="0"
       sodipodi:nodetypes="ccccccccccccccccc" />
    <path
       style="opacity:1;fill:#0082ed;fill-opacity:1;stroke:none;stroke-width:3;stroke-linecap:round;stroke-linejoin:round;stroke-miterlimit:4;stroke-dasharray:none;stroke-dashoffset:0;stroke-opacity:1"
       d="m 20.921967,987.23323 -3.221678,1.0625 -2.677836,3.08985 -5.6650311,11.27342 0.092611,4.2949 0.3152713,4.0352 4.7842417,-9.2109 2.492614,-1.7735 2.746802,0.1035 6.378331,6.5098 6.865034,9.123 3.402959,2.8907 3.408871,0.9492 2.689659,-1.0703 4.445325,-5.0274 3.448279,-6.6191 2.356654,-5.1953 2.090642,-1.6641 2.746802,0.1035 6.378332,6.5098 6.865033,9.123 3.402959,2.8907 3.408871,0.9492 2.689659,-1.0703 4.445325,-5.0274 3.448279,-6.6191 2.356654,-5.1953 -0.05714,-4.6426 -0.429557,-3.55859 -3.292615,6.5293 -3.115275,4.89839 -2.319214,1.9219 -2.344831,0.2871 -2.880792,-1.5898 -4.238429,-4.3399 -6.151731,-8.80074 -5.286706,-4.63672 -1.745815,-0.50391 -3.221678,1.0625 -2.677836,3.08985 -5.665031,11.27342 -1.300494,2.2363 -2.319215,1.9219 -2.34483,0.2871 -2.880791,-1.5898 -4.238429,-4.3399 -6.151731,-8.80074 -5.286706,-4.63672 z"
       id="path4170"
       inkscape:connector-curvature="0"
       sodipodi:nodetypes="ccccccccccccccccccccccccccccccccccccccccccccccccc" />
  </g>
</svg>
