<?xml version="1.0" encoding="UTF-8" standalone="no"?>
<!-- Created with Inkscape (http://www.inkscape.org/) -->

<svg
   xmlns:dc="http://purl.org/dc/elements/1.1/"
   xmlns:cc="http://creativecommons.org/ns#"
   xmlns:rdf="http://www.w3.org/1999/02/22-rdf-syntax-ns#"
   xmlns:svg="http://www.w3.org/2000/svg"
   xmlns="http://www.w3.org/2000/svg"
   xmlns:sodipodi="http://sodipodi.sourceforge.net/DTD/sodipodi-0.dtd"
   xmlns:inkscape="http://www.inkscape.org/namespaces/inkscape"
   width="100"
   height="100"
   viewBox="0 0 100 100"
   id="svg6845"
   version="1.1"
   inkscape:version="0.91 r13725"
   sodipodi:docname="cell_delay_2.svg">
  <defs
     id="defs6847" />
  <sodipodi:namedview
     id="base"
     pagecolor="#ffffff"
     bordercolor="#666666"
     borderopacity="1.0"
     inkscape:pageopacity="0.0"
     inkscape:pageshadow="2"
     inkscape:zoom="2.8"
     inkscape:cx="-11.112185"
     inkscape:cy="10.142184"
     inkscape:document-units="px"
     inkscape:current-layer="layer1"
     showgrid="false"
     inkscape:window-width="1112"
     inkscape:window-height="704"
     inkscape:window-x="199"
     inkscape:window-y="90"
     inkscape:window-maximized="0"
     units="px" />
  <metadata
     id="metadata6850">
    <rdf:RDF>
      <cc:Work
         rdf:about="">
        <dc:format>image/svg+xml</dc:format>
        <dc:type
           rdf:resource="http://purl.org/dc/dcmitype/StillImage" />
        <dc:title />
      </cc:Work>
    </rdf:RDF>
  </metadata>
  <g
     inkscape:groupmode="layer"
     id="layer3"
     inkscape:label="base"
     style="display:inline"
     transform="translate(0,-952.36214)">
    <path
       style="display:inline;opacity:1;fill:#855e00;fill-opacity:1;stroke:none;stroke-width:4.60599995;stroke-linecap:round;stroke-linejoin:round;stroke-miterlimit:4;stroke-dasharray:none;stroke-dashoffset:0;stroke-opacity:1"
       d="m 100,1002.3621 -3.929248,19.4623 -10.715413,15.893 -15.893083,10.7155 L 50,1052.3621 30.537744,1048.4329 14.644661,1037.7174 3.9292479,1021.8244 0,1002.3621 3.929249,982.89985 14.644664,967.00677 30.537747,956.29137 50,952.36212 l 19.462253,3.92925 15.893083,10.7154 10.715415,15.89308 z"
       id="path5062-4"
       inkscape:connector-curvature="0"
       sodipodi:nodetypes="ccccccccccccccccc" />
  </g>
  <g
     inkscape:label="design"
     inkscape:groupmode="layer"
     id="layer1"
     style="display:inline"
     transform="translate(0,-952.36214)">
    <path
       style="display:inline;opacity:1;fill:#7ea81e;fill-opacity:1;stroke:none;stroke-width:4.60599995;stroke-linecap:round;stroke-linejoin:round;stroke-miterlimit:4;stroke-dasharray:none;stroke-dashoffset:0;stroke-opacity:1"
       d="m 90.715736,1002.3621 -3.199626,15.8484 -8.725714,12.942 -12.941979,8.7257 L 50,1043.0779 l -15.848418,-3.1997 -12.941978,-8.7257 -8.725714,-12.942 -3.1996264,-15.8484 3.1996604,-15.84839 8.72572,-12.94197 12.941963,-8.72571 L 50,961.64639 l 15.848393,3.19964 12.941963,8.72571 8.725719,12.94197 z"
       id="circle8577"
       inkscape:connector-curvature="0"
       sodipodi:nodetypes="ccccccccccccccccc" />
    <path
       style="display:inline;opacity:1;fill:#91dd1c;fill-opacity:1;stroke:none;stroke-width:4.60599995;stroke-linecap:round;stroke-linejoin:round;stroke-miterlimit:4;stroke-dasharray:none;stroke-dashoffset:0;stroke-opacity:1"
       d="m 83.139591,1002.3621 -2.604271,12.8994 -7.102087,10.5338 -10.533806,7.1021 L 50,1035.5017 l -12.899427,-2.6043 -10.533806,-7.1021 -7.102087,-10.5338 -2.604271,-12.8994 2.604277,-12.89942 7.102089,-10.5338 L 37.10058,971.8268 50,969.22253 l 12.89942,2.60427 10.533805,7.10208 7.102089,10.5338 z"
       id="circle4183"
       inkscape:connector-curvature="0"
       sodipodi:nodetypes="ccccccccccccccccc" />
    <path
       style="opacity:1;fill:#0082ed;fill-opacity:1;stroke:none;stroke-width:3;stroke-linecap:round;stroke-linejoin:round;stroke-miterlimit:4;stroke-dasharray:none;stroke-dashoffset:0;stroke-opacity:1"
       d="m 47.766129,1002.3621 -2.156443,5.2061 -5.206137,2.1565 -5.206137,-2.1565 -2.156443,-5.2061 2.156457,-5.20612 5.206123,-2.15644 5.206123,2.15644 z"
       id="path4306"
       inkscape:connector-curvature="0"
       sodipodi:nodetypes="ccccccccc" />
    <path
       style="opacity:1;fill:#0082ed;fill-opacity:1;stroke:none;stroke-width:3;stroke-linecap:round;stroke-linejoin:round;stroke-miterlimit:4;stroke-dasharray:none;stroke-dashoffset:0;stroke-opacity:1"
       d="m 66.959031,1002.3621 -2.156443,5.2061 -5.206137,2.1565 -5.206137,-2.1565 -2.156443,-5.2061 2.156457,-5.20612 5.206123,-2.15644 5.206123,2.15644 z"
       id="circle4139"
       inkscape:connector-curvature="0"
       sodipodi:nodetypes="ccccccccc" />
  </g>
</svg>
