<?xml version="1.0" encoding="UTF-8" standalone="no"?>
<!-- Created with Inkscape (http://www.inkscape.org/) -->

<svg
   xmlns:dc="http://purl.org/dc/elements/1.1/"
   xmlns:cc="http://creativecommons.org/ns#"
   xmlns:rdf="http://www.w3.org/1999/02/22-rdf-syntax-ns#"
   xmlns:svg="http://www.w3.org/2000/svg"
   xmlns="http://www.w3.org/2000/svg"
   xmlns:sodipodi="http://sodipodi.sourceforge.net/DTD/sodipodi-0.dtd"
   xmlns:inkscape="http://www.inkscape.org/namespaces/inkscape"
   width="100"
   height="100"
   viewBox="0 0 100 100"
   id="svg4146"
   version="1.1"
   inkscape:version="0.91 r13725"
   sodipodi:docname="paddle.svg">
  <defs
     id="defs4148" />
  <sodipodi:namedview
     id="base"
     pagecolor="#ffffff"
     bordercolor="#666666"
     borderopacity="1.0"
     inkscape:pageopacity="0.0"
     inkscape:pageshadow="2"
     inkscape:zoom="4"
     inkscape:cx="22.791896"
     inkscape:cy="47.776124"
     inkscape:document-units="px"
     inkscape:current-layer="layer2"
     showgrid="false"
     units="px"
     inkscape:window-width="1366"
     inkscape:window-height="745"
     inkscape:window-x="-8"
     inkscape:window-y="-8"
     inkscape:window-maximized="1" />
  <metadata
     id="metadata4151">
    <rdf:RDF>
      <cc:Work
         rdf:about="">
        <dc:format>image/svg+xml</dc:format>
        <dc:type
           rdf:resource="http://purl.org/dc/dcmitype/StillImage" />
        <dc:title />
      </cc:Work>
    </rdf:RDF>
  </metadata>
  <g
     inkscape:label="base"
     inkscape:groupmode="layer"
     id="layer1"
     transform="translate(0,-952.36216)">
    <path
       style="fill:#faa070;fill-opacity:1;fill-rule:evenodd;stroke:none;stroke-width:1px;stroke-linecap:butt;stroke-linejoin:miter;stroke-opacity:1"
       d="m 1.1992188,994.57603 -1.1367188,2.1236 0,11.32507 1.1367188,2.1236 3.5996093,-0.8515 4.9863281,-4.0764 1.4082028,-2.8595 -1.4082028,-2.85699 -4.9863281,-4.07634 z"
       id="path4157"
       inkscape:connector-curvature="0"
       sodipodi:nodetypes="cccccccccc" />
  </g>
  <g
     inkscape:groupmode="layer"
     id="layer2"
     inkscape:label="base_rmed_fin1a"
     sodipodi:insensitive="true">
    <path
       style="fill:#a35806;fill-opacity:1;fill-rule:evenodd;stroke:none;stroke-width:1px;stroke-linecap:butt;stroke-linejoin:miter;stroke-opacity:1"
       d="m 7.6210938,45.93748 2.25,4.06257 -2.24609,4.06249 33.8125002,-2.404331 0.5,-1.658159 -0.503906,-1.658159 z"
       id="path4182"
       inkscape:connector-curvature="0"
       sodipodi:nodetypes="ccccccc"
       inkscape:transform-center-x="-19.500005" />
  </g>
  <g
     inkscape:groupmode="layer"
     id="layer5"
     inkscape:label="fin1a_mark"
     sodipodi:insensitive="true">
    <path
       style="fill:#fc2cff;fill-opacity:1;fill-rule:evenodd;stroke:none;stroke-width:1px;stroke-linecap:butt;stroke-linejoin:miter;stroke-opacity:1"
       d="m 21.281985,50.773398 2.209709,-2.607456 1.149048,3.668117 z"
       id="path4194"
       inkscape:connector-curvature="0" />
  </g>
  <g
     inkscape:groupmode="layer"
     id="layer3"
     inkscape:label="fin1a_w_fin1hinge"
     sodipodi:insensitive="true">
    <path
       style="opacity:1;fill:#2e1902;fill-opacity:1;stroke:none;stroke-width:1;stroke-linecap:round;stroke-linejoin:round;stroke-miterlimit:4;stroke-dasharray:none;stroke-dashoffset:0;stroke-opacity:1"
       d="m 47.234766,50.000068 -5.472652,2.227405 -1.187876,-2.227405 1.187876,-2.227574 z"
       id="path4189"
       inkscape:connector-curvature="0"
       sodipodi:nodetypes="ccccc" />
  </g>
  <g
     inkscape:groupmode="layer"
     id="layer4"
     inkscape:label="fin1hinge_rmed_fin1b"
     sodipodi:insensitive="true">
    <path
       sodipodi:nodetypes="ccccccc"
       inkscape:connector-curvature="0"
       id="path4187"
       d="m 44.359832,47.581676 -0.937311,2.418386 0.941211,2.418193 33.326364,-1.431188 0.8125,-0.987005 -0.816406,-0.987198 z"
       style="fill:#f68912;fill-opacity:1;fill-rule:evenodd;stroke:none;stroke-width:1px;stroke-linecap:butt;stroke-linejoin:miter;stroke-opacity:1"
       inkscape:transform-center-x="-17.455321"
       inkscape:transform-center-y="-5.7765274e-005" />
  </g>
  <g
     inkscape:groupmode="layer"
     id="layer6"
     inkscape:label="base_rweak_fin2a"
     sodipodi:insensitive="true">
    <path
       inkscape:transform-center-x="-15.17171"
       sodipodi:nodetypes="ccccccc"
       inkscape:connector-curvature="0"
       id="path4143"
       d="M 7.6210938,45.93748 9.3716753,50.00005 7.6241359,54.06254 33.931486,51.658209 34.320504,50.00005 33.928447,48.341891 Z"
       style="fill:#1ea306;fill-opacity:1;fill-rule:evenodd;stroke:none;stroke-width:1px;stroke-linecap:butt;stroke-linejoin:miter;stroke-opacity:1" />
  </g>
  <g
     inkscape:groupmode="layer"
     id="layer7"
     inkscape:label="fin2a_w_fin2hinge"
     sodipodi:insensitive="true">
    <path
       sodipodi:nodetypes="ccccc"
       inkscape:connector-curvature="0"
       id="path4150"
       d="m 39.234766,50.000068 -5.472652,2.227405 -1.187876,-2.227405 1.187876,-2.227574 z"
       style="opacity:1;fill:#2e1902;fill-opacity:1;stroke:none;stroke-width:1;stroke-linecap:round;stroke-linejoin:round;stroke-miterlimit:4;stroke-dasharray:none;stroke-dashoffset:0;stroke-opacity:1" />
  </g>
  <g
     inkscape:groupmode="layer"
     id="layer8"
     inkscape:label="fin2hinge_rmed_fin2b"
     sodipodi:insensitive="true">
    <path
       inkscape:transform-center-y="-5.7765274e-005"
       inkscape:transform-center-x="-13.580872"
       style="fill:#12f69f;fill-opacity:1;fill-rule:evenodd;stroke:none;stroke-width:1px;stroke-linecap:butt;stroke-linejoin:miter;stroke-opacity:1"
       d="m 36.205163,47.581676 -0.729262,2.418386 0.732296,2.418193 25.929119,-1.431188 0.632154,-0.987005 -0.635193,-0.987198 z"
       id="path4156"
       inkscape:connector-curvature="0"
       sodipodi:nodetypes="ccccccc" />
  </g>
  <g
     inkscape:groupmode="layer"
     id="layer9"
     inkscape:label="base_rweak_fin3a">
    <path
       style="fill:#a3068f;fill-opacity:1;fill-rule:evenodd;stroke:none;stroke-width:1px;stroke-linecap:butt;stroke-linejoin:miter;stroke-opacity:1"
       d="m 7.6210938,45.93748 1.3185003,4.06257 -1.3162091,4.06249 19.81413,-2.404331 0.293,-1.658159 -0.295289,-1.658159 z"
       id="path4174"
       inkscape:connector-curvature="0"
       sodipodi:nodetypes="ccccccc"
       inkscape:transform-center-x="-11.427005" />
  </g>
  <g
     inkscape:groupmode="layer"
     id="layer10"
     inkscape:label="fin3a_w_fin3hinge">
    <path
       style="opacity:1;fill:#2e1902;fill-opacity:1;stroke:none;stroke-width:1;stroke-linecap:round;stroke-linejoin:round;stroke-miterlimit:4;stroke-dasharray:none;stroke-dashoffset:0;stroke-opacity:1"
       d="m 33.234766,50.000068 -5.472652,2.227405 -1.187876,-2.227405 1.187876,-2.227574 z"
       id="path4169"
       inkscape:connector-curvature="0"
       sodipodi:nodetypes="ccccc" />
  </g>
  <g
     inkscape:groupmode="layer"
     id="layer11"
     inkscape:label="fin3hinge_rmed_fin3b">
    <path
       sodipodi:nodetypes="ccccccc"
       inkscape:connector-curvature="0"
       id="path4164"
       d="m 29.15,47.581676 -0.549265,2.418386 0.55155,2.418193 19.529255,-1.431188 0.476124,-0.987005 -0.478413,-0.987198 z"
       style="fill:#f61299;fill-opacity:1;fill-rule:evenodd;stroke:none;stroke-width:1px;stroke-linecap:butt;stroke-linejoin:miter;stroke-opacity:1"
       inkscape:transform-center-x="-10.22882"
       inkscape:transform-center-y="-5.7765274e-005" />
  </g>
</svg>
