<?xml version="1.0" encoding="UTF-8" standalone="no"?>
<!-- Created with Inkscape (http://www.inkscape.org/) -->

<svg
   xmlns:dc="http://purl.org/dc/elements/1.1/"
   xmlns:cc="http://creativecommons.org/ns#"
   xmlns:rdf="http://www.w3.org/1999/02/22-rdf-syntax-ns#"
   xmlns:svg="http://www.w3.org/2000/svg"
   xmlns="http://www.w3.org/2000/svg"
   xmlns:sodipodi="http://sodipodi.sourceforge.net/DTD/sodipodi-0.dtd"
   xmlns:inkscape="http://www.inkscape.org/namespaces/inkscape"
   width="100"
   height="100"
   viewBox="0 0 100 100"
   id="svg2"
   version="1.1"
   inkscape:version="0.91 r13725"
   sodipodi:docname="spine.svg">
  <defs
     id="defs4" />
  <sodipodi:namedview
     id="base"
     pagecolor="#ffffff"
     bordercolor="#666666"
     borderopacity="1.0"
     inkscape:pageopacity="0.0"
     inkscape:pageshadow="2"
     inkscape:zoom="11.2"
     inkscape:cx="27.779749"
     inkscape:cy="52.328599"
     inkscape:document-units="px"
     inkscape:current-layer="layer2"
     showgrid="false"
     units="px"
     inkscape:window-width="1058"
     inkscape:window-height="748"
     inkscape:window-x="5"
     inkscape:window-y="32"
     inkscape:window-maximized="0"
     showguides="false" />
  <metadata
     id="metadata7">
    <rdf:RDF>
      <cc:Work
         rdf:about="">
        <dc:format>image/svg+xml</dc:format>
        <dc:type
           rdf:resource="http://purl.org/dc/dcmitype/StillImage" />
        <dc:title />
      </cc:Work>
    </rdf:RDF>
  </metadata>
  <g
     inkscape:label="base"
     inkscape:groupmode="layer"
     id="layer1"
     transform="translate(0,-952.36216)">
    <path
       style="opacity:1;fill:#000000;fill-opacity:1;stroke:none;stroke-width:5;stroke-linecap:round;stroke-linejoin:round;stroke-miterlimit:4;stroke-dasharray:none;stroke-dashoffset:0;stroke-opacity:1"
       d="m 16.402287,1002.3622 -2.733051,8.9972 -6.5981691,3.7269 -3.6321322,-1 -5.6990873,-11.7241 5.6990873,-11.72419 3.6321322,-0.99993 6.5981691,3.7268 z"
       id="path4708"
       inkscape:connector-curvature="0"
       sodipodi:nodetypes="ccccccccc" />
  </g>
  <g
     inkscape:groupmode="layer"
     id="layer2"
     inkscape:label="base_rmed_vert1">
    <path
       style="fill:#46aa61;fill-opacity:1;fill-rule:evenodd;stroke:none;stroke-width:1px;stroke-linecap:butt;stroke-linejoin:miter;stroke-opacity:1"
       d="m 39.602604,28.642355 -4.8079,-0.464711 -6.485427,3.144356 -2.286236,10.642844 -2.73795,1.785156 -6.95145,-2.322266 1.06827,-12.320601 -2.900193,-1.964844 -3.214844,0.642422 -3.7320525,2.215 L 8.4294554,47.643 12.751718,50 8.4294524,52.357 7.5548185,70.000289 l 3.7320525,2.215 3.214844,0.642422 2.900193,-1.964844 -1.068267,-12.320601 6.95145,-2.322266 2.73795,1.785156 2.286236,10.642844 6.485427,3.144355 4.8079,-0.464711 L 35.918912,67.464711 35.504156,61.427734 47.718459,55.5 47.718,44.5 35.504156,38.572266 35.918912,32.535289 Z"
       id="path4703"
       inkscape:connector-curvature="0"
       sodipodi:nodetypes="cccccccccccccccccccccccccccccc" />
  </g>
  <g
     inkscape:groupmode="layer"
     id="layer3"
     inkscape:label="vert1_mark_1">
    <path
       style="fill:#ce65dc;fill-opacity:1;fill-rule:evenodd;stroke:none;stroke-width:1px;stroke-linecap:butt;stroke-linejoin:miter;stroke-opacity:1"
       d="m 12.813813,27.175034 1.696429,1.607143 1.428571,-2.142857 z"
       id="path4137"
       inkscape:connector-curvature="0" />
  </g>
  <g
     inkscape:groupmode="layer"
     id="layer4"
     inkscape:label="vert1_mark_2">
    <path
       inkscape:connector-curvature="0"
       id="path4139"
       d="m 12.782246,72.793398 1.696429,-1.607143 1.428571,2.142857 z"
       style="fill:#ce65dc;fill-opacity:1;fill-rule:evenodd;stroke:none;stroke-width:1px;stroke-linecap:butt;stroke-linejoin:miter;stroke-opacity:1" />
  </g>
</svg>
